<?xml version="1.0" encoding="utf-8"?>
<!DOCTYPE eagle SYSTEM "eagle.dtd">
<eagle version="9.1.1">
<drawing>
<settings>
<setting alwaysvectorfont="no"/>
<setting verticaltext="up"/>
</settings>
<grid distance="0.1" unitdist="inch" unit="inch" style="lines" multiple="1" display="no" altdistance="0.01" altunitdist="inch" altunit="inch"/>
<layers>
<layer number="1" name="Top" color="4" fill="1" visible="yes" active="yes"/>
<layer number="16" name="Bottom" color="1" fill="1" visible="yes" active="yes"/>
<layer number="17" name="Pads" color="2" fill="1" visible="yes" active="yes"/>
<layer number="18" name="Vias" color="2" fill="1" visible="yes" active="yes"/>
<layer number="19" name="Unrouted" color="6" fill="1" visible="yes" active="yes"/>
<layer number="20" name="Dimension" color="24" fill="1" visible="yes" active="yes"/>
<layer number="21" name="tPlace" color="7" fill="1" visible="yes" active="yes"/>
<layer number="22" name="bPlace" color="7" fill="1" visible="yes" active="yes"/>
<layer number="23" name="tOrigins" color="15" fill="1" visible="yes" active="yes"/>
<layer number="24" name="bOrigins" color="15" fill="1" visible="yes" active="yes"/>
<layer number="25" name="tNames" color="7" fill="1" visible="yes" active="yes"/>
<layer number="26" name="bNames" color="7" fill="1" visible="yes" active="yes"/>
<layer number="27" name="tValues" color="7" fill="1" visible="yes" active="yes"/>
<layer number="28" name="bValues" color="7" fill="1" visible="yes" active="yes"/>
<layer number="29" name="tStop" color="7" fill="3" visible="no" active="yes"/>
<layer number="30" name="bStop" color="7" fill="6" visible="no" active="yes"/>
<layer number="31" name="tCream" color="7" fill="4" visible="no" active="yes"/>
<layer number="32" name="bCream" color="7" fill="5" visible="no" active="yes"/>
<layer number="33" name="tFinish" color="6" fill="3" visible="no" active="yes"/>
<layer number="34" name="bFinish" color="6" fill="6" visible="no" active="yes"/>
<layer number="35" name="tGlue" color="7" fill="4" visible="no" active="yes"/>
<layer number="36" name="bGlue" color="7" fill="5" visible="no" active="yes"/>
<layer number="37" name="tTest" color="7" fill="1" visible="no" active="yes"/>
<layer number="38" name="bTest" color="7" fill="1" visible="no" active="yes"/>
<layer number="39" name="tKeepout" color="4" fill="11" visible="yes" active="yes"/>
<layer number="40" name="bKeepout" color="1" fill="11" visible="yes" active="yes"/>
<layer number="41" name="tRestrict" color="4" fill="10" visible="yes" active="yes"/>
<layer number="42" name="bRestrict" color="1" fill="10" visible="yes" active="yes"/>
<layer number="43" name="vRestrict" color="2" fill="10" visible="yes" active="yes"/>
<layer number="44" name="Drills" color="7" fill="1" visible="no" active="yes"/>
<layer number="45" name="Holes" color="7" fill="1" visible="no" active="yes"/>
<layer number="46" name="Milling" color="3" fill="1" visible="no" active="yes"/>
<layer number="47" name="Measures" color="7" fill="1" visible="no" active="yes"/>
<layer number="48" name="Document" color="7" fill="1" visible="yes" active="yes"/>
<layer number="49" name="Reference" color="7" fill="1" visible="yes" active="yes"/>
<layer number="51" name="tDocu" color="7" fill="1" visible="yes" active="yes"/>
<layer number="52" name="bDocu" color="7" fill="1" visible="yes" active="yes"/>
<layer number="88" name="SimResults" color="9" fill="1" visible="yes" active="yes"/>
<layer number="89" name="SimProbes" color="9" fill="1" visible="yes" active="yes"/>
<layer number="90" name="Modules" color="5" fill="1" visible="yes" active="yes"/>
<layer number="91" name="Nets" color="2" fill="1" visible="yes" active="yes"/>
<layer number="92" name="Busses" color="1" fill="1" visible="yes" active="yes"/>
<layer number="93" name="Pins" color="2" fill="1" visible="yes" active="yes"/>
<layer number="94" name="Symbols" color="4" fill="1" visible="yes" active="yes"/>
<layer number="95" name="Names" color="7" fill="1" visible="yes" active="yes"/>
<layer number="96" name="Values" color="7" fill="1" visible="yes" active="yes"/>
<layer number="97" name="Info" color="7" fill="1" visible="yes" active="yes"/>
<layer number="98" name="Guide" color="6" fill="1" visible="yes" active="yes"/>
</layers>
<library>
<packages>
<package name="AI-3039-TWT-12V-R">
<pad name="P$1" x="-7.5" y="0" drill="1" diameter="1.6" shape="octagon"/>
<pad name="P$2" x="7.5" y="0" drill="1" diameter="1.6" shape="octagon"/>
<circle x="0" y="0" radius="15" width="0.127" layer="21"/>
<text x="-8.89" y="1.27" size="1.27" layer="21">+</text>
<text x="6.35" y="1.27" size="1.27" layer="21">-</text>
<text x="-8.255" y="5.08" size="1.27" layer="21">AI-3039-TWT-12V-R</text>
</package>
<package name="AI-4228-TWT-R">
<pad name="P$1" x="-12.7" y="0" drill="1" diameter="1.8" shape="octagon"/>
<pad name="P$2" x="12.7" y="0" drill="1" diameter="1.8" shape="octagon"/>
<circle x="0" y="0" radius="21" width="0.127" layer="21"/>
<text x="-13.335" y="1.905" size="1.27" layer="21">+</text>
<text x="12.065" y="1.905" size="1.27" layer="21">-</text>
<text x="-6.985" y="7.62" size="1.27" layer="21">AI-4228-TWT-R</text>
</package>
</packages>
<symbols>
<symbol name="BUZZER">
<wire x1="5.08" y1="2.54" x2="-5.08" y2="2.54" width="0.254" layer="94" curve="-180"/>
<wire x1="-5.08" y1="2.54" x2="5.08" y2="2.54" width="0.254" layer="94"/>
<pin name="P$1" x="-2.54" y="-5.08" visible="off" length="short" direction="pwr" rot="R90"/>
<pin name="P$2" x="2.54" y="-5.08" visible="off" length="short" direction="pwr" rot="R90"/>
<wire x1="-2.54" y1="-2.54" x2="-2.54" y2="-1.905" width="0.15" layer="94"/>
<wire x1="2.54" y1="-2.54" x2="2.54" y2="-1.905" width="0.15" layer="94"/>
<text x="-3.175" y="-1.27" size="1.778" layer="94">+</text>
<text x="3.175" y="-1.27" size="1.778" layer="94" rot="MR0">-</text>
<text x="-5.08" y="3.048" size="1.27" layer="95">&gt;NAME</text>
<text x="-5.334" y="-5.08" size="1.27" layer="96" rot="R90">&gt;VALUE</text>
</symbol>
</symbols>
<devicesets>
<deviceset name="AI-3039-TWT-12V-R" prefix="LS">
<gates>
<gate name="G$1" symbol="BUZZER" x="0" y="0"/>
</gates>
<devices>
<device name="" package="AI-3039-TWT-12V-R">
<connects>
<connect gate="G$1" pin="P$1" pad="P$1"/>
<connect gate="G$1" pin="P$2" pad="P$2"/>
</connects>
<technologies>
<technology name=""/>
</technologies>
</device>
</devices>
</deviceset>
<deviceset name="AI-4228-TWT-R" prefix="LS">
<gates>
<gate name="G$1" symbol="BUZZER" x="0" y="0"/>
</gates>
<devices>
<device name="" package="AI-4228-TWT-R">
<connects>
<connect gate="G$1" pin="P$1" pad="P$1"/>
<connect gate="G$1" pin="P$2" pad="P$2"/>
</connects>
<technologies>
<technology name=""/>
</technologies>
</device>
</devices>
</deviceset>
</devicesets>
</library>
</drawing>
</eagle>
