<?xml version="1.0" encoding="utf-8"?>
<!DOCTYPE eagle SYSTEM "eagle.dtd">
<eagle version="9.1.1">
<drawing>
<settings>
<setting alwaysvectorfont="no"/>
<setting verticaltext="up"/>
</settings>
<grid distance="0.1" unitdist="inch" unit="inch" style="lines" multiple="1" display="no" altdistance="0.01" altunitdist="inch" altunit="inch"/>
<layers>
<layer number="1" name="Top" color="4" fill="1" visible="yes" active="yes"/>
<layer number="16" name="Bottom" color="1" fill="1" visible="yes" active="yes"/>
<layer number="17" name="Pads" color="2" fill="1" visible="yes" active="yes"/>
<layer number="18" name="Vias" color="2" fill="1" visible="yes" active="yes"/>
<layer number="19" name="Unrouted" color="6" fill="1" visible="yes" active="yes"/>
<layer number="20" name="Dimension" color="24" fill="1" visible="yes" active="yes"/>
<layer number="21" name="tPlace" color="7" fill="1" visible="yes" active="yes"/>
<layer number="22" name="bPlace" color="7" fill="1" visible="yes" active="yes"/>
<layer number="23" name="tOrigins" color="15" fill="1" visible="yes" active="yes"/>
<layer number="24" name="bOrigins" color="15" fill="1" visible="yes" active="yes"/>
<layer number="25" name="tNames" color="7" fill="1" visible="yes" active="yes"/>
<layer number="26" name="bNames" color="7" fill="1" visible="yes" active="yes"/>
<layer number="27" name="tValues" color="7" fill="1" visible="yes" active="yes"/>
<layer number="28" name="bValues" color="7" fill="1" visible="yes" active="yes"/>
<layer number="29" name="tStop" color="7" fill="3" visible="no" active="yes"/>
<layer number="30" name="bStop" color="7" fill="6" visible="no" active="yes"/>
<layer number="31" name="tCream" color="7" fill="4" visible="no" active="yes"/>
<layer number="32" name="bCream" color="7" fill="5" visible="no" active="yes"/>
<layer number="33" name="tFinish" color="6" fill="3" visible="no" active="yes"/>
<layer number="34" name="bFinish" color="6" fill="6" visible="no" active="yes"/>
<layer number="35" name="tGlue" color="7" fill="4" visible="no" active="yes"/>
<layer number="36" name="bGlue" color="7" fill="5" visible="no" active="yes"/>
<layer number="37" name="tTest" color="7" fill="1" visible="no" active="yes"/>
<layer number="38" name="bTest" color="7" fill="1" visible="no" active="yes"/>
<layer number="39" name="tKeepout" color="4" fill="11" visible="yes" active="yes"/>
<layer number="40" name="bKeepout" color="1" fill="11" visible="yes" active="yes"/>
<layer number="41" name="tRestrict" color="4" fill="10" visible="yes" active="yes"/>
<layer number="42" name="bRestrict" color="1" fill="10" visible="yes" active="yes"/>
<layer number="43" name="vRestrict" color="2" fill="10" visible="yes" active="yes"/>
<layer number="44" name="Drills" color="7" fill="1" visible="no" active="yes"/>
<layer number="45" name="Holes" color="7" fill="1" visible="no" active="yes"/>
<layer number="46" name="Milling" color="3" fill="1" visible="no" active="yes"/>
<layer number="47" name="Measures" color="7" fill="1" visible="no" active="yes"/>
<layer number="48" name="Document" color="7" fill="1" visible="yes" active="yes"/>
<layer number="49" name="Reference" color="7" fill="1" visible="yes" active="yes"/>
<layer number="51" name="tDocu" color="7" fill="1" visible="yes" active="yes"/>
<layer number="52" name="bDocu" color="7" fill="1" visible="yes" active="yes"/>
<layer number="88" name="SimResults" color="9" fill="1" visible="yes" active="yes"/>
<layer number="89" name="SimProbes" color="9" fill="1" visible="yes" active="yes"/>
<layer number="90" name="Modules" color="5" fill="1" visible="yes" active="yes"/>
<layer number="91" name="Nets" color="2" fill="1" visible="yes" active="yes"/>
<layer number="92" name="Busses" color="1" fill="1" visible="yes" active="yes"/>
<layer number="93" name="Pins" color="2" fill="1" visible="no" active="yes"/>
<layer number="94" name="Symbols" color="4" fill="1" visible="yes" active="yes"/>
<layer number="95" name="Names" color="7" fill="1" visible="yes" active="yes"/>
<layer number="96" name="Values" color="7" fill="1" visible="yes" active="yes"/>
<layer number="97" name="Info" color="7" fill="1" visible="yes" active="yes"/>
<layer number="98" name="Guide" color="6" fill="1" visible="yes" active="yes"/>
</layers>
<library>
<packages>
<package name="PCF(N)">
<pad name="P$1" x="-11.9888" y="-5.7912" drill="1.6002" diameter="2.2352"/>
<pad name="P$2" x="10.0076" y="-5.7912" drill="1.6002" diameter="2.2352"/>
<pad name="P$3" x="13.843" y="6.1976" drill="1.8034" diameter="2.4384"/>
<pad name="P$4" x="-13.843" y="6.1976" drill="1.8034" diameter="2.4384"/>
<wire x1="-15.24" y1="8.001" x2="15.24" y2="8.001" width="0.127" layer="21"/>
<wire x1="15.24" y1="8.001" x2="15.24" y2="-8.001" width="0.127" layer="21"/>
<wire x1="15.24" y1="-8.001" x2="-15.24" y2="-8.001" width="0.127" layer="21"/>
<wire x1="-15.24" y1="-8.001" x2="-15.24" y2="8.001" width="0.127" layer="21"/>
<text x="-15.24" y="8.255" size="1.27" layer="21">&gt;NAME</text>
<text x="-11.43" y="5.715" size="1.27" layer="21">&gt;VALUE</text>
</package>
</packages>
<symbols>
<symbol name="SWITCH-NO">
<wire x1="2.54" y1="2.54" x2="-2.54" y2="1.651" width="0.254" layer="94"/>
<circle x="2.54" y="2.54" radius="0.2839" width="0" layer="94"/>
<circle x="-2.54" y="2.54" radius="0.2839" width="0" layer="94"/>
<text x="-4.445" y="3.81" size="1.778" layer="95">&gt;NAME</text>
<text x="-3.81" y="-6.35" size="1.778" layer="96">&gt;VALUE</text>
<pin name="3" x="5.08" y="2.54" visible="pad" length="short" direction="pas" rot="R180"/>
<pin name="4" x="-5.08" y="2.54" visible="pad" length="short" direction="pas"/>
<pin name="2" x="5.08" y="-2.54" visible="pad" length="short" direction="pas" rot="R180"/>
<pin name="1" x="-5.08" y="-2.54" visible="pad" length="short" direction="pas"/>
<wire x1="1.27" y1="-2.54" x2="0.635" y2="-3.81" width="0.254" layer="94"/>
<wire x1="0.635" y1="-3.81" x2="0" y2="-2.54" width="0.254" layer="94"/>
<wire x1="0" y1="-2.54" x2="-0.635" y2="-3.81" width="0.254" layer="94"/>
<wire x1="-0.635" y1="-3.81" x2="-1.27" y2="-2.54" width="0.254" layer="94"/>
<wire x1="-1.27" y1="-2.54" x2="-1.905" y2="-3.81" width="0.254" layer="94"/>
<wire x1="-1.905" y1="-3.81" x2="-2.54" y2="-2.54" width="0.254" layer="94"/>
<wire x1="1.27" y1="-2.54" x2="1.905" y2="-3.81" width="0.254" layer="94"/>
<wire x1="1.905" y1="-3.81" x2="2.54" y2="-2.54" width="0.254" layer="94"/>
<wire x1="0" y1="1.27" x2="0" y2="1.905" width="0.254" layer="94"/>
<wire x1="0" y1="0.635" x2="0" y2="0" width="0.254" layer="94"/>
<wire x1="0" y1="-0.635" x2="0" y2="-1.27" width="0.254" layer="94"/>
<wire x1="0" y1="-1.905" x2="0" y2="-2.54" width="0.254" layer="94"/>
<text x="-2.54" y="0.635" size="0.762" layer="94">NO</text>
<wire x1="-3.81" y1="3.175" x2="-3.81" y2="-4.445" width="0.254" layer="94"/>
<wire x1="-3.81" y1="-4.445" x2="3.81" y2="-4.445" width="0.254" layer="94"/>
<wire x1="3.81" y1="-4.445" x2="3.81" y2="3.175" width="0.254" layer="94"/>
<wire x1="3.81" y1="3.175" x2="-3.81" y2="3.175" width="0.254" layer="94"/>
</symbol>
</symbols>
<devicesets>
<deviceset name="PCF-124D2M" prefix="K">
<gates>
<gate name="G$1" symbol="SWITCH-NO" x="0" y="0"/>
</gates>
<devices>
<device name="" package="PCF(N)">
<connects>
<connect gate="G$1" pin="1" pad="P$1"/>
<connect gate="G$1" pin="2" pad="P$2"/>
<connect gate="G$1" pin="3" pad="P$3"/>
<connect gate="G$1" pin="4" pad="P$4"/>
</connects>
<technologies>
<technology name=""/>
</technologies>
</device>
</devices>
</deviceset>
</devicesets>
</library>
</drawing>
</eagle>
