<?xml version="1.0" encoding="utf-8"?>
<!DOCTYPE eagle SYSTEM "eagle.dtd">
<eagle version="9.1.1">
<drawing>
<settings>
<setting alwaysvectorfont="no"/>
<setting verticaltext="up"/>
</settings>
<grid distance="1" unitdist="mil" unit="mil" style="lines" multiple="1" display="yes" altdistance="5" altunitdist="mil" altunit="mil"/>
<layers>
<layer number="1" name="Top" color="4" fill="1" visible="yes" active="yes"/>
<layer number="2" name="Route2" color="16" fill="1" visible="no" active="yes"/>
<layer number="3" name="Route3" color="17" fill="1" visible="no" active="yes"/>
<layer number="4" name="Route4" color="18" fill="1" visible="no" active="yes"/>
<layer number="5" name="Route5" color="19" fill="1" visible="no" active="yes"/>
<layer number="6" name="Route6" color="25" fill="1" visible="no" active="yes"/>
<layer number="7" name="Route7" color="26" fill="1" visible="no" active="yes"/>
<layer number="8" name="Route8" color="27" fill="1" visible="no" active="yes"/>
<layer number="9" name="Route9" color="28" fill="1" visible="no" active="yes"/>
<layer number="10" name="Route10" color="29" fill="1" visible="no" active="yes"/>
<layer number="11" name="Route11" color="30" fill="1" visible="no" active="yes"/>
<layer number="12" name="Route12" color="20" fill="1" visible="no" active="yes"/>
<layer number="13" name="Route13" color="21" fill="1" visible="no" active="yes"/>
<layer number="14" name="Route14" color="22" fill="1" visible="no" active="yes"/>
<layer number="15" name="Route15" color="23" fill="1" visible="yes" active="yes"/>
<layer number="16" name="Bottom" color="1" fill="1" visible="yes" active="yes"/>
<layer number="17" name="Pads" color="2" fill="1" visible="yes" active="yes"/>
<layer number="18" name="Vias" color="2" fill="1" visible="yes" active="yes"/>
<layer number="19" name="Unrouted" color="6" fill="1" visible="yes" active="yes"/>
<layer number="20" name="Dimension" color="24" fill="1" visible="yes" active="yes"/>
<layer number="21" name="tPlace" color="7" fill="1" visible="yes" active="yes"/>
<layer number="22" name="bPlace" color="7" fill="1" visible="yes" active="yes"/>
<layer number="23" name="tOrigins" color="15" fill="1" visible="yes" active="yes"/>
<layer number="24" name="bOrigins" color="15" fill="1" visible="yes" active="yes"/>
<layer number="25" name="tNames" color="7" fill="1" visible="yes" active="yes"/>
<layer number="26" name="bNames" color="7" fill="1" visible="yes" active="yes"/>
<layer number="27" name="tValues" color="7" fill="1" visible="yes" active="yes"/>
<layer number="28" name="bValues" color="7" fill="1" visible="yes" active="yes"/>
<layer number="29" name="tStop" color="7" fill="3" visible="yes" active="yes"/>
<layer number="30" name="bStop" color="7" fill="6" visible="no" active="yes"/>
<layer number="31" name="tCream" color="7" fill="4" visible="yes" active="yes"/>
<layer number="32" name="bCream" color="7" fill="5" visible="no" active="yes"/>
<layer number="33" name="tFinish" color="6" fill="3" visible="no" active="yes"/>
<layer number="34" name="bFinish" color="6" fill="6" visible="no" active="yes"/>
<layer number="35" name="tGlue" color="7" fill="4" visible="no" active="yes"/>
<layer number="36" name="bGlue" color="7" fill="5" visible="no" active="yes"/>
<layer number="37" name="tTest" color="7" fill="1" visible="no" active="yes"/>
<layer number="38" name="bTest" color="7" fill="1" visible="no" active="yes"/>
<layer number="39" name="tKeepout" color="4" fill="11" visible="yes" active="yes"/>
<layer number="40" name="bKeepout" color="1" fill="11" visible="yes" active="yes"/>
<layer number="41" name="tRestrict" color="4" fill="10" visible="yes" active="yes"/>
<layer number="42" name="bRestrict" color="1" fill="10" visible="yes" active="yes"/>
<layer number="43" name="vRestrict" color="2" fill="10" visible="yes" active="yes"/>
<layer number="44" name="Drills" color="7" fill="1" visible="no" active="yes"/>
<layer number="45" name="Holes" color="7" fill="1" visible="no" active="yes"/>
<layer number="46" name="Milling" color="3" fill="1" visible="no" active="yes"/>
<layer number="47" name="Measures" color="7" fill="1" visible="no" active="yes"/>
<layer number="48" name="Document" color="7" fill="1" visible="yes" active="yes"/>
<layer number="49" name="Reference" color="7" fill="1" visible="yes" active="yes"/>
<layer number="51" name="tDocu" color="7" fill="1" visible="yes" active="yes"/>
<layer number="52" name="bDocu" color="7" fill="1" visible="yes" active="yes"/>
<layer number="88" name="SimResults" color="9" fill="1" visible="yes" active="yes"/>
<layer number="89" name="SimProbes" color="9" fill="1" visible="yes" active="yes"/>
<layer number="90" name="Modules" color="5" fill="1" visible="yes" active="yes"/>
<layer number="91" name="Nets" color="2" fill="1" visible="yes" active="yes"/>
<layer number="92" name="Busses" color="1" fill="1" visible="yes" active="yes"/>
<layer number="93" name="Pins" color="2" fill="1" visible="no" active="yes"/>
<layer number="94" name="Symbols" color="4" fill="1" visible="yes" active="yes"/>
<layer number="95" name="Names" color="7" fill="1" visible="yes" active="yes"/>
<layer number="96" name="Values" color="7" fill="1" visible="yes" active="yes"/>
<layer number="97" name="Info" color="7" fill="1" visible="yes" active="yes"/>
<layer number="98" name="Guide" color="6" fill="1" visible="yes" active="yes"/>
<layer number="99" name="SpiceOrder" color="5" fill="1" visible="yes" active="yes"/>
</layers>
<library>
<packages>
<package name="SOD-80" urn="urn:adsk.eagle:footprint:43241/1" locally_modified="yes">
<description>&lt;b&gt;Molded plasitc,JEDEC SOD-123/Mini SMA&lt;/b&gt;&lt;p&gt;
Source: Comchip CGRM4001-G.pdf</description>
<wire x1="-0.9835" y1="0.835" x2="0.9835" y2="0.835" width="0.127" layer="51"/>
<wire x1="-0.9835" y1="-0.835" x2="0.9835" y2="-0.835" width="0.127" layer="51"/>
<wire x1="-0.3175" y1="0" x2="0.3175" y2="-0.4763" width="0.127" layer="21"/>
<wire x1="0.3175" y1="-0.4763" x2="0.3175" y2="0" width="0.127" layer="21"/>
<wire x1="0.3175" y1="0" x2="0.3175" y2="0.4763" width="0.127" layer="21"/>
<wire x1="0.3175" y1="0.4763" x2="-0.3175" y2="0" width="0.127" layer="21"/>
<wire x1="-0.3175" y1="0" x2="-0.3175" y2="-0.4763" width="0.127" layer="21"/>
<wire x1="-0.3175" y1="0" x2="-0.3175" y2="0.4763" width="0.127" layer="21"/>
<wire x1="0.3175" y1="0" x2="0.5613" y2="0" width="0.127" layer="21"/>
<wire x1="-0.3175" y1="0" x2="-0.5613" y2="0" width="0.127" layer="21"/>
<smd name="A" x="1.95" y="0" dx="0.6" dy="1.65" layer="1" rot="R180"/>
<smd name="C" x="-1.95" y="0" dx="0.6" dy="1.65" layer="1" rot="R180"/>
<text x="-3.048" y="1.143" size="1.27" layer="25">&gt;NAME</text>
<text x="-3.048" y="-2.413" size="1.27" layer="27">&gt;VALUE</text>
<polygon width="0" layer="1">
<vertex x="-2.2479" y="0.8255"/>
<vertex x="-1.1557" y="0.8255"/>
<vertex x="-1.1557" y="0.254"/>
<vertex x="-1.651" y="0.254"/>
<vertex x="-1.651" y="-0.254"/>
<vertex x="-1.1557" y="-0.254"/>
<vertex x="-1.1557" y="-0.8255"/>
<vertex x="-2.2479" y="-0.8255"/>
</polygon>
<polygon width="0" layer="1">
<vertex x="2.2479" y="-0.8255"/>
<vertex x="1.1557" y="-0.8255"/>
<vertex x="1.1557" y="-0.254"/>
<vertex x="1.651" y="-0.254"/>
<vertex x="1.651" y="0.254"/>
<vertex x="1.1557" y="0.254"/>
<vertex x="1.1557" y="0.8255"/>
<vertex x="2.2479" y="0.8255"/>
</polygon>
<polygon width="0" layer="29">
<vertex x="-2.3622" y="0.9398"/>
<vertex x="-1.0414" y="0.9398"/>
<vertex x="-1.0414" y="0.4826"/>
<vertex x="-1.0414" y="0.127"/>
<vertex x="-1.524" y="0.127"/>
<vertex x="-1.524" y="-0.1524"/>
<vertex x="-1.0668" y="-0.1524"/>
<vertex x="-1.0414" y="-0.1524"/>
<vertex x="-1.0414" y="-0.9398"/>
<vertex x="-2.3622" y="-0.9398"/>
</polygon>
<polygon width="0" layer="29">
<vertex x="2.3622" y="0.9398"/>
<vertex x="1.0414" y="0.9398"/>
<vertex x="1.0414" y="0.1524"/>
<vertex x="1.5494" y="0.1524"/>
<vertex x="1.5494" y="-0.1524"/>
<vertex x="1.0414" y="-0.1524"/>
<vertex x="1.0414" y="-0.9398"/>
<vertex x="2.3622" y="-0.9398"/>
</polygon>
<polygon width="0" layer="31">
<vertex x="2.3622" y="0.9398"/>
<vertex x="1.0414" y="0.9398"/>
<vertex x="1.0414" y="0.1524"/>
<vertex x="1.5494" y="0.1524"/>
<vertex x="1.5494" y="-0.1524"/>
<vertex x="1.0414" y="-0.1524"/>
<vertex x="1.0414" y="-0.9398"/>
<vertex x="2.3622" y="-0.9398"/>
</polygon>
<polygon width="0" layer="31">
<vertex x="-2.3622" y="0.9398"/>
<vertex x="-1.0414" y="0.9398"/>
<vertex x="-1.0414" y="0.4826"/>
<vertex x="-1.0414" y="0.127"/>
<vertex x="-1.524" y="0.127"/>
<vertex x="-1.524" y="-0.1524"/>
<vertex x="-1.0668" y="-0.1524"/>
<vertex x="-1.0414" y="-0.1524"/>
<vertex x="-1.0414" y="-0.9398"/>
<vertex x="-2.3622" y="-0.9398"/>
</polygon>
</package>
</packages>
<symbols>
<symbol name="DIODE">
<wire x1="-1.27" y1="-1.905" x2="1.27" y2="0" width="0.254" layer="94"/>
<wire x1="1.27" y1="0" x2="-1.27" y2="1.905" width="0.254" layer="94"/>
<wire x1="-1.27" y1="1.905" x2="-1.27" y2="-1.905" width="0.254" layer="94"/>
<wire x1="1.397" y1="1.905" x2="1.397" y2="-1.905" width="0.254" layer="94"/>
<text x="-2.3114" y="2.6416" size="1.778" layer="95">&gt;NAME</text>
<text x="-2.5654" y="-4.4958" size="1.778" layer="96">&gt;VALUE</text>
<pin name="A" x="-2.54" y="0" visible="off" length="short" direction="pas"/>
<pin name="C" x="2.54" y="0" visible="off" length="short" direction="pas" rot="R180"/>
</symbol>
</symbols>
<devicesets>
<deviceset name="LL4148" prefix="D">
<gates>
<gate name="G$1" symbol="DIODE" x="0" y="0"/>
</gates>
<devices>
<device name="" package="SOD-80">
<connects>
<connect gate="G$1" pin="A" pad="A"/>
<connect gate="G$1" pin="C" pad="C"/>
</connects>
<technologies>
<technology name=""/>
</technologies>
</device>
</devices>
</deviceset>
</devicesets>
</library>
</drawing>
<compatibility>
<note version="8.3" severity="warning">
Since Version 8.3, EAGLE supports URNs for individual library
assets (packages, symbols, and devices). The URNs of those assets
will not be understood (or retained) with this version.
</note>
</compatibility>
</eagle>
