<?xml version="1.0" encoding="utf-8"?>
<!DOCTYPE eagle SYSTEM "eagle.dtd">
<eagle version="9.1.1">
<drawing>
<settings>
<setting alwaysvectorfont="no"/>
<setting verticaltext="up"/>
</settings>
<grid distance="0.1" unitdist="inch" unit="inch" style="lines" multiple="1" display="no" altdistance="0.01" altunitdist="inch" altunit="inch"/>
<layers>
<layer number="1" name="Top" color="4" fill="1" visible="yes" active="yes"/>
<layer number="2" name="Route2" color="1" fill="3" visible="no" active="no"/>
<layer number="3" name="Route3" color="4" fill="3" visible="no" active="no"/>
<layer number="4" name="Route4" color="1" fill="4" visible="no" active="no"/>
<layer number="5" name="Route5" color="4" fill="4" visible="no" active="no"/>
<layer number="6" name="Route6" color="1" fill="8" visible="no" active="no"/>
<layer number="7" name="Route7" color="4" fill="8" visible="no" active="no"/>
<layer number="8" name="Route8" color="1" fill="2" visible="no" active="no"/>
<layer number="9" name="Route9" color="4" fill="2" visible="no" active="no"/>
<layer number="10" name="Route10" color="1" fill="7" visible="no" active="no"/>
<layer number="11" name="Route11" color="4" fill="7" visible="no" active="no"/>
<layer number="12" name="Route12" color="1" fill="5" visible="no" active="no"/>
<layer number="13" name="Route13" color="4" fill="5" visible="no" active="no"/>
<layer number="14" name="Route14" color="1" fill="6" visible="no" active="no"/>
<layer number="15" name="Route15" color="4" fill="6" visible="no" active="no"/>
<layer number="16" name="Bottom" color="1" fill="1" visible="yes" active="yes"/>
<layer number="17" name="Pads" color="2" fill="1" visible="yes" active="yes"/>
<layer number="18" name="Vias" color="2" fill="1" visible="yes" active="yes"/>
<layer number="19" name="Unrouted" color="6" fill="1" visible="yes" active="yes"/>
<layer number="20" name="Dimension" color="24" fill="1" visible="yes" active="yes"/>
<layer number="21" name="tPlace" color="7" fill="1" visible="yes" active="yes"/>
<layer number="22" name="bPlace" color="7" fill="1" visible="yes" active="yes"/>
<layer number="23" name="tOrigins" color="15" fill="1" visible="yes" active="yes"/>
<layer number="24" name="bOrigins" color="15" fill="1" visible="yes" active="yes"/>
<layer number="25" name="tNames" color="7" fill="1" visible="yes" active="yes"/>
<layer number="26" name="bNames" color="7" fill="1" visible="yes" active="yes"/>
<layer number="27" name="tValues" color="7" fill="1" visible="yes" active="yes"/>
<layer number="28" name="bValues" color="7" fill="1" visible="yes" active="yes"/>
<layer number="29" name="tStop" color="7" fill="3" visible="no" active="yes"/>
<layer number="30" name="bStop" color="7" fill="6" visible="no" active="yes"/>
<layer number="31" name="tCream" color="7" fill="4" visible="no" active="yes"/>
<layer number="32" name="bCream" color="7" fill="5" visible="no" active="yes"/>
<layer number="33" name="tFinish" color="6" fill="3" visible="no" active="yes"/>
<layer number="34" name="bFinish" color="6" fill="6" visible="no" active="yes"/>
<layer number="35" name="tGlue" color="7" fill="4" visible="no" active="yes"/>
<layer number="36" name="bGlue" color="7" fill="5" visible="no" active="yes"/>
<layer number="37" name="tTest" color="7" fill="1" visible="no" active="yes"/>
<layer number="38" name="bTest" color="7" fill="1" visible="no" active="yes"/>
<layer number="39" name="tKeepout" color="4" fill="11" visible="yes" active="yes"/>
<layer number="40" name="bKeepout" color="1" fill="11" visible="yes" active="yes"/>
<layer number="41" name="tRestrict" color="4" fill="10" visible="yes" active="yes"/>
<layer number="42" name="bRestrict" color="1" fill="10" visible="yes" active="yes"/>
<layer number="43" name="vRestrict" color="2" fill="10" visible="yes" active="yes"/>
<layer number="44" name="Drills" color="7" fill="1" visible="no" active="yes"/>
<layer number="45" name="Holes" color="7" fill="1" visible="yes" active="yes"/>
<layer number="46" name="Milling" color="3" fill="1" visible="no" active="yes"/>
<layer number="47" name="Measures" color="7" fill="1" visible="no" active="yes"/>
<layer number="48" name="Document" color="7" fill="1" visible="yes" active="yes"/>
<layer number="49" name="Reference" color="7" fill="1" visible="yes" active="yes"/>
<layer number="51" name="tDocu" color="7" fill="1" visible="yes" active="yes"/>
<layer number="52" name="bDocu" color="7" fill="1" visible="yes" active="yes"/>
<layer number="88" name="SimResults" color="9" fill="1" visible="yes" active="yes"/>
<layer number="89" name="SimProbes" color="9" fill="1" visible="yes" active="yes"/>
<layer number="90" name="Modules" color="5" fill="1" visible="yes" active="yes"/>
<layer number="91" name="Nets" color="2" fill="1" visible="yes" active="yes"/>
<layer number="92" name="Busses" color="1" fill="1" visible="yes" active="yes"/>
<layer number="93" name="Pins" color="2" fill="1" visible="yes" active="yes"/>
<layer number="94" name="Symbols" color="4" fill="1" visible="yes" active="yes"/>
<layer number="95" name="Names" color="7" fill="1" visible="yes" active="yes"/>
<layer number="96" name="Values" color="7" fill="1" visible="yes" active="yes"/>
<layer number="97" name="Info" color="7" fill="1" visible="yes" active="yes"/>
<layer number="98" name="Guide" color="6" fill="1" visible="yes" active="yes"/>
</layers>
<library>
<packages>
<package name="YB12864ZB">
<pad name="LEDB" x="14" y="3" drill="1.2" diameter="1.8" shape="long" rot="R90"/>
<pad name="LEDA" x="16.54" y="3" drill="1.2" diameter="1.8" shape="long" rot="R90"/>
<pad name="VOUT" x="19.08" y="3" drill="1.2" diameter="1.8" shape="long" rot="R90"/>
<pad name="!RST" x="21.62" y="3" drill="1.2" diameter="1.8" shape="long" rot="R90"/>
<pad name="NC" x="24.16" y="3" drill="1.2" diameter="1.8" shape="long" rot="R90"/>
<pad name="P!S!B" x="26.7" y="3" drill="1.2" diameter="1.8" shape="long" rot="R90"/>
<pad name="DB7" x="29.24" y="3" drill="1.2" diameter="1.8" shape="long" rot="R90"/>
<pad name="DB6" x="31.78" y="3" drill="1.2" diameter="1.8" shape="long" rot="R90"/>
<pad name="DB5" x="34.32" y="3" drill="1.2" diameter="1.8" shape="long" rot="R90"/>
<pad name="DB4" x="36.86" y="3" drill="1.2" diameter="1.8" shape="long" rot="R90"/>
<pad name="DB3" x="39.4" y="3" drill="1.2" diameter="1.8" shape="long" rot="R90"/>
<pad name="DB2" x="41.94" y="3" drill="1.2" diameter="1.8" shape="long" rot="R90"/>
<pad name="DB1" x="44.48" y="3" drill="1.2" diameter="1.8" shape="long" rot="R90"/>
<pad name="DB0" x="47.02" y="3" drill="1.2" diameter="1.8" shape="long" rot="R90"/>
<pad name="E(SCLK)" x="49.56" y="3" drill="1.2" diameter="1.8" shape="long" rot="R90"/>
<pad name="R!W!(SID)" x="52.1" y="3" drill="1.2" diameter="1.8" shape="long" rot="R90"/>
<pad name="RS(CS)" x="54.64" y="3" drill="1.2" diameter="1.8" shape="long" rot="R90"/>
<pad name="V0" x="57.18" y="3" drill="1.2" diameter="1.8" shape="long" rot="R90"/>
<pad name="VDD" x="59.72" y="3" drill="1.2" diameter="1.8" shape="long" rot="R90"/>
<pad name="VSS" x="62.26" y="3" drill="1.2" diameter="1.8" shape="long" rot="R90"/>
<wire x1="0" y1="0" x2="93" y2="0" width="0.127" layer="21"/>
<wire x1="93" y1="0" x2="93" y2="70" width="0.127" layer="21"/>
<wire x1="93" y1="70" x2="0" y2="70" width="0.127" layer="21"/>
<wire x1="0" y1="70" x2="0" y2="0" width="0.127" layer="21"/>
<wire x1="7.25" y1="9.5" x2="12" y2="9.5" width="0.127" layer="21"/>
<wire x1="64" y1="9.5" x2="85.75" y2="9.5" width="0.127" layer="21"/>
<wire x1="85.75" y1="9.5" x2="85.75" y2="60.5" width="0.127" layer="21"/>
<wire x1="85.75" y1="60.5" x2="7.25" y2="60.5" width="0.127" layer="21"/>
<wire x1="7.25" y1="60.5" x2="7.25" y2="9.5" width="0.127" layer="21"/>
<wire x1="12" y1="15" x2="81.5" y2="15" width="0.127" layer="21"/>
<wire x1="81.5" y1="15" x2="82.5" y2="16" width="0.127" layer="21" curve="90"/>
<wire x1="82.5" y1="16" x2="82.5" y2="53.5" width="0.127" layer="21"/>
<wire x1="82.5" y1="53.5" x2="81" y2="55" width="0.127" layer="21" curve="90"/>
<wire x1="81" y1="55" x2="11.5" y2="55" width="0.127" layer="21"/>
<wire x1="11.5" y1="55" x2="10.5" y2="54" width="0.127" layer="21" curve="90"/>
<wire x1="10.5" y1="54" x2="10.5" y2="16.5" width="0.127" layer="21"/>
<wire x1="10.5" y1="16.5" x2="12" y2="15" width="0.127" layer="21" curve="90"/>
<text x="62.865" y="5.715" size="1.27" layer="21" rot="R90">VSS</text>
<text x="60.325" y="5.715" size="1.27" layer="21" rot="R90">VDD</text>
<text x="57.785" y="5.715" size="1.27" layer="21" rot="R90">V0</text>
<text x="52.705" y="5.715" size="1.27" layer="21" rot="R90">R!W!(SID)</text>
<text x="55.245" y="5.715" size="1.27" layer="21" rot="R90">RS(CS)</text>
<text x="50.165" y="5.715" size="1.27" layer="21" rot="R90">E(SCLK)</text>
<text x="47.625" y="5.715" size="1.27" layer="21" rot="R90">DB0</text>
<text x="45.085" y="5.715" size="1.27" layer="21" rot="R90">DB1</text>
<text x="42.545" y="5.715" size="1.27" layer="21" rot="R90">DB2</text>
<text x="40.005" y="5.715" size="1.27" layer="21" rot="R90">DB3</text>
<text x="37.465" y="5.715" size="1.27" layer="21" rot="R90">DB4</text>
<text x="34.925" y="5.715" size="1.27" layer="21" rot="R90">DB5</text>
<text x="32.385" y="5.715" size="1.27" layer="21" rot="R90">DB6</text>
<text x="29.845" y="5.715" size="1.27" layer="21" rot="R90">DB7</text>
<text x="27.305" y="5.715" size="1.27" layer="21" rot="R90">P!S!B</text>
<text x="22.225" y="5.715" size="1.27" layer="21" rot="R90">!RST</text>
<text x="24.765" y="5.715" size="1.27" layer="21" rot="R90">NC</text>
<text x="19.685" y="5.715" size="1.27" layer="21" rot="R90">VOUT</text>
<text x="17.145" y="5.715" size="1.27" layer="21" rot="R90">LEDA</text>
<text x="14.605" y="5.715" size="1.27" layer="21" rot="R90">LEDB</text>
<text x="10" y="67" size="1.27" layer="21">&gt;NAME</text>
<text x="10" y="65" size="1.27" layer="21">&gt;VALUE</text>
<hole x="3" y="3" drill="3.2"/>
<hole x="90" y="3" drill="3.2"/>
<hole x="3" y="67" drill="3.2"/>
<hole x="90" y="67" drill="3.2"/>
<circle x="3" y="67" radius="2" width="0.127" layer="39"/>
<circle x="3" y="3" radius="2" width="0.127" layer="39"/>
<circle x="90" y="3" radius="2" width="0.127" layer="39"/>
<circle x="90" y="67" radius="2" width="0.127" layer="39"/>
<circle x="90" y="67" radius="2" width="0.127" layer="40"/>
<circle x="3" y="67" radius="2" width="0.127" layer="40"/>
<circle x="3" y="3" radius="2" width="0.127" layer="40"/>
<circle x="90" y="3" radius="2" width="0.127" layer="40"/>
</package>
<package name="LCD_2X16">
<wire x1="-42.29" y1="19.01" x2="37.71" y2="19.01" width="0.127" layer="21"/>
<wire x1="37.71" y1="19.01" x2="37.71" y2="-16.99" width="0.127" layer="21"/>
<wire x1="37.71" y1="-16.99" x2="-42.29" y2="-16.99" width="0.127" layer="27"/>
<wire x1="-42.29" y1="-16.99" x2="-42.29" y2="19.01" width="0.127" layer="21"/>
<wire x1="-37.29" y1="13.51" x2="32.71" y2="13.51" width="0.127" layer="21"/>
<wire x1="32.71" y1="13.51" x2="32.71" y2="-11.49" width="0.127" layer="21"/>
<wire x1="-37.29" y1="13.51" x2="-37.29" y2="-11.49" width="0.127" layer="21"/>
<wire x1="-37.29" y1="-11.49" x2="32.71" y2="-11.49" width="0.127" layer="21"/>
<circle x="-39.79" y="16.51" radius="2.54" width="0.127" layer="39"/>
<circle x="35.21" y="16.51" radius="2.54" width="0.127" layer="39"/>
<circle x="35.21" y="-14.49" radius="2.54" width="0.127" layer="39"/>
<circle x="-39.79" y="-14.49" radius="2.54" width="0.127" layer="39"/>
<pad name="1" x="-34.29" y="16.51" drill="1" diameter="1.9304" rot="R90"/>
<pad name="2" x="-31.75" y="16.51" drill="1" diameter="1.9304" rot="R90"/>
<pad name="3" x="-29.21" y="16.51" drill="1" diameter="1.9304" rot="R90"/>
<pad name="4" x="-26.67" y="16.51" drill="1" diameter="1.9304" rot="R90"/>
<pad name="5" x="-24.13" y="16.51" drill="1" diameter="1.9304" rot="R90"/>
<pad name="6" x="-21.59" y="16.51" drill="1" diameter="1.9304" rot="R90"/>
<pad name="7" x="-19.05" y="16.51" drill="1" diameter="1.9304" rot="R90"/>
<pad name="8" x="-16.51" y="16.51" drill="1" diameter="1.9304" rot="R90"/>
<pad name="9" x="-13.97" y="16.51" drill="1" diameter="1.9304" rot="R90"/>
<pad name="10" x="-11.43" y="16.51" drill="1" diameter="1.9304" rot="R90"/>
<pad name="11" x="-8.89" y="16.51" drill="1" diameter="1.9304" rot="R90"/>
<pad name="12" x="-6.35" y="16.51" drill="1" diameter="1.9304" rot="R90"/>
<pad name="13" x="-3.81" y="16.51" drill="1" diameter="1.9304" rot="R90"/>
<pad name="14" x="-1.27" y="16.51" drill="1" diameter="1.9304" rot="R90"/>
<pad name="15" x="1.27" y="16.51" drill="1" diameter="1.9304" rot="R90"/>
<pad name="16" x="3.81" y="16.51" drill="1" diameter="1.9304" rot="R90"/>
<text x="-42.29" y="19.31" size="1.27" layer="25">&gt;NAME</text>
<hole x="-39.79" y="16.51" drill="2.5"/>
<hole x="35.21" y="16.51" drill="2.5"/>
<hole x="-39.79" y="-14.49" drill="2.5"/>
<hole x="35.21" y="-14.49" drill="2.5"/>
<circle x="-39.79" y="16.51" radius="2.54" width="0.127" layer="40"/>
<circle x="-39.79" y="-14.49" radius="2.54" width="0.127" layer="40"/>
<circle x="35.21" y="-14.49" radius="2.54" width="0.127" layer="40"/>
<circle x="35.21" y="16.51" radius="2.54" width="0.127" layer="40"/>
</package>
</packages>
<symbols>
<symbol name="YB12864ZB">
<pin name="VSS" x="33.02" y="-6.35" length="middle" direction="pwr" rot="R90"/>
<pin name="VDD" x="27.94" y="-6.35" length="middle" direction="pwr" rot="R90"/>
<pin name="V0" x="22.86" y="-6.35" length="middle" rot="R90"/>
<pin name="RS(CS)" x="17.78" y="-6.35" length="middle" rot="R90"/>
<pin name="R!W!(SID)" x="12.7" y="-6.35" length="middle" rot="R90"/>
<pin name="E(SCLK)" x="7.62" y="-6.35" length="middle" rot="R90"/>
<pin name="DB0" x="2.54" y="-6.35" length="middle" rot="R90"/>
<pin name="DB1" x="-2.54" y="-6.35" length="middle" rot="R90"/>
<pin name="DB2" x="-7.62" y="-6.35" length="middle" rot="R90"/>
<pin name="DB3" x="-12.7" y="-6.35" length="middle" rot="R90"/>
<pin name="DB4" x="-17.78" y="-6.35" length="middle" rot="R90"/>
<pin name="DB5" x="-22.86" y="-6.35" length="middle" rot="R90"/>
<pin name="DB6" x="-27.94" y="-6.35" length="middle" rot="R90"/>
<pin name="DB7" x="-33.02" y="-6.35" length="middle" rot="R90"/>
<pin name="P!S!B" x="-38.1" y="-6.35" length="middle" rot="R90"/>
<pin name="NC" x="-43.18" y="-6.35" length="middle" direction="nc" rot="R90"/>
<pin name="!RST" x="-48.26" y="-6.35" length="middle" rot="R90"/>
<pin name="VOUT" x="-53.34" y="-6.35" length="middle" direction="pwr" rot="R90"/>
<pin name="LEDA" x="-58.42" y="-6.35" length="middle" rot="R90"/>
<pin name="LEDB" x="-63.5" y="-6.35" length="middle" rot="R90"/>
<polygon width="0.254" layer="94">
<vertex x="-66.04" y="40.64"/>
<vertex x="-63.5" y="40.64"/>
<vertex x="-63.5" y="38.1"/>
<vertex x="-66.04" y="38.1"/>
</polygon>
<polygon width="0.254" layer="94">
<vertex x="-62.23" y="40.64"/>
<vertex x="-59.69" y="40.64"/>
<vertex x="-59.69" y="38.1"/>
<vertex x="-62.23" y="38.1"/>
</polygon>
<polygon width="0.254" layer="94">
<vertex x="-58.42" y="40.64"/>
<vertex x="-55.88" y="40.64"/>
<vertex x="-55.88" y="38.1"/>
<vertex x="-58.42" y="38.1"/>
</polygon>
<polygon width="0.254" layer="94">
<vertex x="-54.61" y="40.64"/>
<vertex x="-52.07" y="40.64"/>
<vertex x="-52.07" y="38.1"/>
<vertex x="-54.61" y="38.1"/>
</polygon>
<polygon width="0.254" layer="94">
<vertex x="-50.8" y="40.64"/>
<vertex x="-48.26" y="40.64"/>
<vertex x="-48.26" y="38.1"/>
<vertex x="-50.8" y="38.1"/>
</polygon>
<polygon width="0.254" layer="94">
<vertex x="-46.99" y="40.64"/>
<vertex x="-44.45" y="40.64"/>
<vertex x="-44.45" y="38.1"/>
<vertex x="-46.99" y="38.1"/>
</polygon>
<polygon width="0.254" layer="94">
<vertex x="-43.18" y="40.64"/>
<vertex x="-40.64" y="40.64"/>
<vertex x="-40.64" y="38.1"/>
<vertex x="-43.18" y="38.1"/>
</polygon>
<polygon width="0.254" layer="94">
<vertex x="-39.37" y="40.64"/>
<vertex x="-36.83" y="40.64"/>
<vertex x="-36.83" y="38.1"/>
<vertex x="-39.37" y="38.1"/>
</polygon>
<polygon width="0.254" layer="94">
<vertex x="-35.56" y="40.64"/>
<vertex x="-33.02" y="40.64"/>
<vertex x="-33.02" y="38.1"/>
<vertex x="-35.56" y="38.1"/>
</polygon>
<polygon width="0.254" layer="94">
<vertex x="-31.75" y="40.64"/>
<vertex x="-29.21" y="40.64"/>
<vertex x="-29.21" y="38.1"/>
<vertex x="-31.75" y="38.1"/>
</polygon>
<polygon width="0.254" layer="94">
<vertex x="-66.04" y="36.83"/>
<vertex x="-63.5" y="36.83"/>
<vertex x="-63.5" y="34.29"/>
<vertex x="-66.04" y="34.29"/>
</polygon>
<polygon width="0.254" layer="94">
<vertex x="-62.23" y="36.83"/>
<vertex x="-59.69" y="36.83"/>
<vertex x="-59.69" y="34.29"/>
<vertex x="-62.23" y="34.29"/>
</polygon>
<polygon width="0.254" layer="94">
<vertex x="-58.42" y="36.83"/>
<vertex x="-55.88" y="36.83"/>
<vertex x="-55.88" y="34.29"/>
<vertex x="-58.42" y="34.29"/>
</polygon>
<polygon width="0.254" layer="94">
<vertex x="-54.61" y="36.83"/>
<vertex x="-52.07" y="36.83"/>
<vertex x="-52.07" y="34.29"/>
<vertex x="-54.61" y="34.29"/>
</polygon>
<polygon width="0.254" layer="94">
<vertex x="-50.8" y="36.83"/>
<vertex x="-48.26" y="36.83"/>
<vertex x="-48.26" y="34.29"/>
<vertex x="-50.8" y="34.29"/>
</polygon>
<polygon width="0.254" layer="94">
<vertex x="-46.99" y="36.83"/>
<vertex x="-44.45" y="36.83"/>
<vertex x="-44.45" y="34.29"/>
<vertex x="-46.99" y="34.29"/>
</polygon>
<polygon width="0.254" layer="94">
<vertex x="-43.18" y="36.83"/>
<vertex x="-40.64" y="36.83"/>
<vertex x="-40.64" y="34.29"/>
<vertex x="-43.18" y="34.29"/>
</polygon>
<polygon width="0.254" layer="94">
<vertex x="-39.37" y="36.83"/>
<vertex x="-36.83" y="36.83"/>
<vertex x="-36.83" y="34.29"/>
<vertex x="-39.37" y="34.29"/>
</polygon>
<polygon width="0.254" layer="94">
<vertex x="-35.56" y="36.83"/>
<vertex x="-33.02" y="36.83"/>
<vertex x="-33.02" y="34.29"/>
<vertex x="-35.56" y="34.29"/>
</polygon>
<polygon width="0.254" layer="94">
<vertex x="-31.75" y="36.83"/>
<vertex x="-29.21" y="36.83"/>
<vertex x="-29.21" y="34.29"/>
<vertex x="-31.75" y="34.29"/>
</polygon>
<polygon width="0.254" layer="94">
<vertex x="-66.04" y="33.02"/>
<vertex x="-63.5" y="33.02"/>
<vertex x="-63.5" y="30.48"/>
<vertex x="-66.04" y="30.48"/>
</polygon>
<polygon width="0.254" layer="94">
<vertex x="-62.23" y="33.02"/>
<vertex x="-59.69" y="33.02"/>
<vertex x="-59.69" y="30.48"/>
<vertex x="-62.23" y="30.48"/>
</polygon>
<polygon width="0.254" layer="94">
<vertex x="-58.42" y="33.02"/>
<vertex x="-55.88" y="33.02"/>
<vertex x="-55.88" y="30.48"/>
<vertex x="-58.42" y="30.48"/>
</polygon>
<polygon width="0.254" layer="94">
<vertex x="-54.61" y="33.02"/>
<vertex x="-52.07" y="33.02"/>
<vertex x="-52.07" y="30.48"/>
<vertex x="-54.61" y="30.48"/>
</polygon>
<polygon width="0.254" layer="94">
<vertex x="-50.8" y="33.02"/>
<vertex x="-48.26" y="33.02"/>
<vertex x="-48.26" y="30.48"/>
<vertex x="-50.8" y="30.48"/>
</polygon>
<polygon width="0.254" layer="94">
<vertex x="-46.99" y="33.02"/>
<vertex x="-44.45" y="33.02"/>
<vertex x="-44.45" y="30.48"/>
<vertex x="-46.99" y="30.48"/>
</polygon>
<polygon width="0.254" layer="94">
<vertex x="-43.18" y="33.02"/>
<vertex x="-40.64" y="33.02"/>
<vertex x="-40.64" y="30.48"/>
<vertex x="-43.18" y="30.48"/>
</polygon>
<polygon width="0.254" layer="94">
<vertex x="-39.37" y="33.02"/>
<vertex x="-36.83" y="33.02"/>
<vertex x="-36.83" y="30.48"/>
<vertex x="-39.37" y="30.48"/>
</polygon>
<polygon width="0.254" layer="94">
<vertex x="-35.56" y="33.02"/>
<vertex x="-33.02" y="33.02"/>
<vertex x="-33.02" y="30.48"/>
<vertex x="-35.56" y="30.48"/>
</polygon>
<polygon width="0.254" layer="94">
<vertex x="-31.75" y="33.02"/>
<vertex x="-29.21" y="33.02"/>
<vertex x="-29.21" y="30.48"/>
<vertex x="-31.75" y="30.48"/>
</polygon>
<polygon width="0.254" layer="94">
<vertex x="-66.04" y="29.21"/>
<vertex x="-63.5" y="29.21"/>
<vertex x="-63.5" y="26.67"/>
<vertex x="-66.04" y="26.67"/>
</polygon>
<polygon width="0.254" layer="94">
<vertex x="-62.23" y="29.21"/>
<vertex x="-59.69" y="29.21"/>
<vertex x="-59.69" y="26.67"/>
<vertex x="-62.23" y="26.67"/>
</polygon>
<polygon width="0.254" layer="94">
<vertex x="-58.42" y="29.21"/>
<vertex x="-55.88" y="29.21"/>
<vertex x="-55.88" y="26.67"/>
<vertex x="-58.42" y="26.67"/>
</polygon>
<polygon width="0.254" layer="94">
<vertex x="-54.61" y="29.21"/>
<vertex x="-52.07" y="29.21"/>
<vertex x="-52.07" y="26.67"/>
<vertex x="-54.61" y="26.67"/>
</polygon>
<polygon width="0.254" layer="94">
<vertex x="-50.8" y="29.21"/>
<vertex x="-48.26" y="29.21"/>
<vertex x="-48.26" y="26.67"/>
<vertex x="-50.8" y="26.67"/>
</polygon>
<polygon width="0.254" layer="94">
<vertex x="-46.99" y="29.21"/>
<vertex x="-44.45" y="29.21"/>
<vertex x="-44.45" y="26.67"/>
<vertex x="-46.99" y="26.67"/>
</polygon>
<polygon width="0.254" layer="94">
<vertex x="-43.18" y="29.21"/>
<vertex x="-40.64" y="29.21"/>
<vertex x="-40.64" y="26.67"/>
<vertex x="-43.18" y="26.67"/>
</polygon>
<polygon width="0.254" layer="94">
<vertex x="-39.37" y="29.21"/>
<vertex x="-36.83" y="29.21"/>
<vertex x="-36.83" y="26.67"/>
<vertex x="-39.37" y="26.67"/>
</polygon>
<polygon width="0.254" layer="94">
<vertex x="-35.56" y="29.21"/>
<vertex x="-33.02" y="29.21"/>
<vertex x="-33.02" y="26.67"/>
<vertex x="-35.56" y="26.67"/>
</polygon>
<polygon width="0.254" layer="94">
<vertex x="-31.75" y="29.21"/>
<vertex x="-29.21" y="29.21"/>
<vertex x="-29.21" y="26.67"/>
<vertex x="-31.75" y="26.67"/>
</polygon>
<polygon width="0.254" layer="94">
<vertex x="-27.94" y="40.64"/>
<vertex x="-25.4" y="40.64"/>
<vertex x="-25.4" y="38.1"/>
<vertex x="-27.94" y="38.1"/>
</polygon>
<polygon width="0.254" layer="94">
<vertex x="-24.13" y="40.64"/>
<vertex x="-21.59" y="40.64"/>
<vertex x="-21.59" y="38.1"/>
<vertex x="-24.13" y="38.1"/>
</polygon>
<polygon width="0.254" layer="94">
<vertex x="-20.32" y="40.64"/>
<vertex x="-17.78" y="40.64"/>
<vertex x="-17.78" y="38.1"/>
<vertex x="-20.32" y="38.1"/>
</polygon>
<polygon width="0.254" layer="94">
<vertex x="-16.51" y="40.64"/>
<vertex x="-13.97" y="40.64"/>
<vertex x="-13.97" y="38.1"/>
<vertex x="-16.51" y="38.1"/>
</polygon>
<polygon width="0.254" layer="94">
<vertex x="-12.7" y="40.64"/>
<vertex x="-10.16" y="40.64"/>
<vertex x="-10.16" y="38.1"/>
<vertex x="-12.7" y="38.1"/>
</polygon>
<polygon width="0.254" layer="94">
<vertex x="-8.89" y="40.64"/>
<vertex x="-6.35" y="40.64"/>
<vertex x="-6.35" y="38.1"/>
<vertex x="-8.89" y="38.1"/>
</polygon>
<polygon width="0.254" layer="94">
<vertex x="-5.08" y="40.64"/>
<vertex x="-2.54" y="40.64"/>
<vertex x="-2.54" y="38.1"/>
<vertex x="-5.08" y="38.1"/>
</polygon>
<polygon width="0.254" layer="94">
<vertex x="-1.27" y="40.64"/>
<vertex x="1.27" y="40.64"/>
<vertex x="1.27" y="38.1"/>
<vertex x="-1.27" y="38.1"/>
</polygon>
<polygon width="0.254" layer="94">
<vertex x="2.54" y="40.64"/>
<vertex x="5.08" y="40.64"/>
<vertex x="5.08" y="38.1"/>
<vertex x="2.54" y="38.1"/>
</polygon>
<polygon width="0.254" layer="94">
<vertex x="6.35" y="40.64"/>
<vertex x="8.89" y="40.64"/>
<vertex x="8.89" y="38.1"/>
<vertex x="6.35" y="38.1"/>
</polygon>
<polygon width="0.254" layer="94">
<vertex x="-27.94" y="36.83"/>
<vertex x="-25.4" y="36.83"/>
<vertex x="-25.4" y="34.29"/>
<vertex x="-27.94" y="34.29"/>
</polygon>
<polygon width="0.254" layer="94">
<vertex x="-24.13" y="36.83"/>
<vertex x="-21.59" y="36.83"/>
<vertex x="-21.59" y="34.29"/>
<vertex x="-24.13" y="34.29"/>
</polygon>
<polygon width="0.254" layer="94">
<vertex x="-20.32" y="36.83"/>
<vertex x="-17.78" y="36.83"/>
<vertex x="-17.78" y="34.29"/>
<vertex x="-20.32" y="34.29"/>
</polygon>
<polygon width="0.254" layer="94">
<vertex x="-16.51" y="36.83"/>
<vertex x="-13.97" y="36.83"/>
<vertex x="-13.97" y="34.29"/>
<vertex x="-16.51" y="34.29"/>
</polygon>
<polygon width="0.254" layer="94">
<vertex x="-12.7" y="36.83"/>
<vertex x="-10.16" y="36.83"/>
<vertex x="-10.16" y="34.29"/>
<vertex x="-12.7" y="34.29"/>
</polygon>
<polygon width="0.254" layer="94">
<vertex x="-8.89" y="36.83"/>
<vertex x="-6.35" y="36.83"/>
<vertex x="-6.35" y="34.29"/>
<vertex x="-8.89" y="34.29"/>
</polygon>
<polygon width="0.254" layer="94">
<vertex x="-5.08" y="36.83"/>
<vertex x="-2.54" y="36.83"/>
<vertex x="-2.54" y="34.29"/>
<vertex x="-5.08" y="34.29"/>
</polygon>
<polygon width="0.254" layer="94">
<vertex x="-1.27" y="36.83"/>
<vertex x="1.27" y="36.83"/>
<vertex x="1.27" y="34.29"/>
<vertex x="-1.27" y="34.29"/>
</polygon>
<polygon width="0.254" layer="94">
<vertex x="2.54" y="36.83"/>
<vertex x="5.08" y="36.83"/>
<vertex x="5.08" y="34.29"/>
<vertex x="2.54" y="34.29"/>
</polygon>
<polygon width="0.254" layer="94">
<vertex x="6.35" y="36.83"/>
<vertex x="8.89" y="36.83"/>
<vertex x="8.89" y="34.29"/>
<vertex x="6.35" y="34.29"/>
</polygon>
<polygon width="0.254" layer="94">
<vertex x="-27.94" y="33.02"/>
<vertex x="-25.4" y="33.02"/>
<vertex x="-25.4" y="30.48"/>
<vertex x="-27.94" y="30.48"/>
</polygon>
<polygon width="0.254" layer="94">
<vertex x="-24.13" y="33.02"/>
<vertex x="-21.59" y="33.02"/>
<vertex x="-21.59" y="30.48"/>
<vertex x="-24.13" y="30.48"/>
</polygon>
<polygon width="0.254" layer="94">
<vertex x="-20.32" y="33.02"/>
<vertex x="-17.78" y="33.02"/>
<vertex x="-17.78" y="30.48"/>
<vertex x="-20.32" y="30.48"/>
</polygon>
<polygon width="0.254" layer="94">
<vertex x="-16.51" y="33.02"/>
<vertex x="-13.97" y="33.02"/>
<vertex x="-13.97" y="30.48"/>
<vertex x="-16.51" y="30.48"/>
</polygon>
<polygon width="0.254" layer="94">
<vertex x="-12.7" y="33.02"/>
<vertex x="-10.16" y="33.02"/>
<vertex x="-10.16" y="30.48"/>
<vertex x="-12.7" y="30.48"/>
</polygon>
<polygon width="0.254" layer="94">
<vertex x="-8.89" y="33.02"/>
<vertex x="-6.35" y="33.02"/>
<vertex x="-6.35" y="30.48"/>
<vertex x="-8.89" y="30.48"/>
</polygon>
<polygon width="0.254" layer="94">
<vertex x="-5.08" y="33.02"/>
<vertex x="-2.54" y="33.02"/>
<vertex x="-2.54" y="30.48"/>
<vertex x="-5.08" y="30.48"/>
</polygon>
<polygon width="0.254" layer="94">
<vertex x="-1.27" y="33.02"/>
<vertex x="1.27" y="33.02"/>
<vertex x="1.27" y="30.48"/>
<vertex x="-1.27" y="30.48"/>
</polygon>
<polygon width="0.254" layer="94">
<vertex x="2.54" y="33.02"/>
<vertex x="5.08" y="33.02"/>
<vertex x="5.08" y="30.48"/>
<vertex x="2.54" y="30.48"/>
</polygon>
<polygon width="0.254" layer="94">
<vertex x="6.35" y="33.02"/>
<vertex x="8.89" y="33.02"/>
<vertex x="8.89" y="30.48"/>
<vertex x="6.35" y="30.48"/>
</polygon>
<polygon width="0.254" layer="94">
<vertex x="-27.94" y="29.21"/>
<vertex x="-25.4" y="29.21"/>
<vertex x="-25.4" y="26.67"/>
<vertex x="-27.94" y="26.67"/>
</polygon>
<polygon width="0.254" layer="94">
<vertex x="-24.13" y="29.21"/>
<vertex x="-21.59" y="29.21"/>
<vertex x="-21.59" y="26.67"/>
<vertex x="-24.13" y="26.67"/>
</polygon>
<polygon width="0.254" layer="94">
<vertex x="-20.32" y="29.21"/>
<vertex x="-17.78" y="29.21"/>
<vertex x="-17.78" y="26.67"/>
<vertex x="-20.32" y="26.67"/>
</polygon>
<polygon width="0.254" layer="94">
<vertex x="-16.51" y="29.21"/>
<vertex x="-13.97" y="29.21"/>
<vertex x="-13.97" y="26.67"/>
<vertex x="-16.51" y="26.67"/>
</polygon>
<polygon width="0.254" layer="94">
<vertex x="-12.7" y="29.21"/>
<vertex x="-10.16" y="29.21"/>
<vertex x="-10.16" y="26.67"/>
<vertex x="-12.7" y="26.67"/>
</polygon>
<polygon width="0.254" layer="94">
<vertex x="-8.89" y="29.21"/>
<vertex x="-6.35" y="29.21"/>
<vertex x="-6.35" y="26.67"/>
<vertex x="-8.89" y="26.67"/>
</polygon>
<polygon width="0.254" layer="94">
<vertex x="-5.08" y="29.21"/>
<vertex x="-2.54" y="29.21"/>
<vertex x="-2.54" y="26.67"/>
<vertex x="-5.08" y="26.67"/>
</polygon>
<polygon width="0.254" layer="94">
<vertex x="-1.27" y="29.21"/>
<vertex x="1.27" y="29.21"/>
<vertex x="1.27" y="26.67"/>
<vertex x="-1.27" y="26.67"/>
</polygon>
<polygon width="0.254" layer="94">
<vertex x="2.54" y="29.21"/>
<vertex x="5.08" y="29.21"/>
<vertex x="5.08" y="26.67"/>
<vertex x="2.54" y="26.67"/>
</polygon>
<polygon width="0.254" layer="94">
<vertex x="6.35" y="29.21"/>
<vertex x="8.89" y="29.21"/>
<vertex x="8.89" y="26.67"/>
<vertex x="6.35" y="26.67"/>
</polygon>
<polygon width="0.254" layer="94">
<vertex x="-66.04" y="25.4"/>
<vertex x="-63.5" y="25.4"/>
<vertex x="-63.5" y="22.86"/>
<vertex x="-66.04" y="22.86"/>
</polygon>
<polygon width="0.254" layer="94">
<vertex x="-62.23" y="25.4"/>
<vertex x="-59.69" y="25.4"/>
<vertex x="-59.69" y="22.86"/>
<vertex x="-62.23" y="22.86"/>
</polygon>
<polygon width="0.254" layer="94">
<vertex x="-58.42" y="25.4"/>
<vertex x="-55.88" y="25.4"/>
<vertex x="-55.88" y="22.86"/>
<vertex x="-58.42" y="22.86"/>
</polygon>
<polygon width="0.254" layer="94">
<vertex x="-54.61" y="25.4"/>
<vertex x="-52.07" y="25.4"/>
<vertex x="-52.07" y="22.86"/>
<vertex x="-54.61" y="22.86"/>
</polygon>
<polygon width="0.254" layer="94">
<vertex x="-50.8" y="25.4"/>
<vertex x="-48.26" y="25.4"/>
<vertex x="-48.26" y="22.86"/>
<vertex x="-50.8" y="22.86"/>
</polygon>
<polygon width="0.254" layer="94">
<vertex x="-46.99" y="25.4"/>
<vertex x="-44.45" y="25.4"/>
<vertex x="-44.45" y="22.86"/>
<vertex x="-46.99" y="22.86"/>
</polygon>
<polygon width="0.254" layer="94">
<vertex x="-43.18" y="25.4"/>
<vertex x="-40.64" y="25.4"/>
<vertex x="-40.64" y="22.86"/>
<vertex x="-43.18" y="22.86"/>
</polygon>
<polygon width="0.254" layer="94">
<vertex x="-39.37" y="25.4"/>
<vertex x="-36.83" y="25.4"/>
<vertex x="-36.83" y="22.86"/>
<vertex x="-39.37" y="22.86"/>
</polygon>
<polygon width="0.254" layer="94">
<vertex x="-35.56" y="25.4"/>
<vertex x="-33.02" y="25.4"/>
<vertex x="-33.02" y="22.86"/>
<vertex x="-35.56" y="22.86"/>
</polygon>
<polygon width="0.254" layer="94">
<vertex x="-31.75" y="25.4"/>
<vertex x="-29.21" y="25.4"/>
<vertex x="-29.21" y="22.86"/>
<vertex x="-31.75" y="22.86"/>
</polygon>
<polygon width="0.254" layer="94">
<vertex x="-66.04" y="21.59"/>
<vertex x="-63.5" y="21.59"/>
<vertex x="-63.5" y="19.05"/>
<vertex x="-66.04" y="19.05"/>
</polygon>
<polygon width="0.254" layer="94">
<vertex x="-62.23" y="21.59"/>
<vertex x="-59.69" y="21.59"/>
<vertex x="-59.69" y="19.05"/>
<vertex x="-62.23" y="19.05"/>
</polygon>
<polygon width="0.254" layer="94">
<vertex x="-58.42" y="21.59"/>
<vertex x="-55.88" y="21.59"/>
<vertex x="-55.88" y="19.05"/>
<vertex x="-58.42" y="19.05"/>
</polygon>
<polygon width="0.254" layer="94">
<vertex x="-54.61" y="21.59"/>
<vertex x="-52.07" y="21.59"/>
<vertex x="-52.07" y="19.05"/>
<vertex x="-54.61" y="19.05"/>
</polygon>
<polygon width="0.254" layer="94">
<vertex x="-50.8" y="21.59"/>
<vertex x="-48.26" y="21.59"/>
<vertex x="-48.26" y="19.05"/>
<vertex x="-50.8" y="19.05"/>
</polygon>
<polygon width="0.254" layer="94">
<vertex x="-46.99" y="21.59"/>
<vertex x="-44.45" y="21.59"/>
<vertex x="-44.45" y="19.05"/>
<vertex x="-46.99" y="19.05"/>
</polygon>
<polygon width="0.254" layer="94">
<vertex x="-43.18" y="21.59"/>
<vertex x="-40.64" y="21.59"/>
<vertex x="-40.64" y="19.05"/>
<vertex x="-43.18" y="19.05"/>
</polygon>
<polygon width="0.254" layer="94">
<vertex x="-39.37" y="21.59"/>
<vertex x="-36.83" y="21.59"/>
<vertex x="-36.83" y="19.05"/>
<vertex x="-39.37" y="19.05"/>
</polygon>
<polygon width="0.254" layer="94">
<vertex x="-35.56" y="21.59"/>
<vertex x="-33.02" y="21.59"/>
<vertex x="-33.02" y="19.05"/>
<vertex x="-35.56" y="19.05"/>
</polygon>
<polygon width="0.254" layer="94">
<vertex x="-31.75" y="21.59"/>
<vertex x="-29.21" y="21.59"/>
<vertex x="-29.21" y="19.05"/>
<vertex x="-31.75" y="19.05"/>
</polygon>
<polygon width="0.254" layer="94">
<vertex x="-66.04" y="17.78"/>
<vertex x="-63.5" y="17.78"/>
<vertex x="-63.5" y="15.24"/>
<vertex x="-66.04" y="15.24"/>
</polygon>
<polygon width="0.254" layer="94">
<vertex x="-62.23" y="17.78"/>
<vertex x="-59.69" y="17.78"/>
<vertex x="-59.69" y="15.24"/>
<vertex x="-62.23" y="15.24"/>
</polygon>
<polygon width="0.254" layer="94">
<vertex x="-58.42" y="17.78"/>
<vertex x="-55.88" y="17.78"/>
<vertex x="-55.88" y="15.24"/>
<vertex x="-58.42" y="15.24"/>
</polygon>
<polygon width="0.254" layer="94">
<vertex x="-54.61" y="17.78"/>
<vertex x="-52.07" y="17.78"/>
<vertex x="-52.07" y="15.24"/>
<vertex x="-54.61" y="15.24"/>
</polygon>
<polygon width="0.254" layer="94">
<vertex x="-50.8" y="17.78"/>
<vertex x="-48.26" y="17.78"/>
<vertex x="-48.26" y="15.24"/>
<vertex x="-50.8" y="15.24"/>
</polygon>
<polygon width="0.254" layer="94">
<vertex x="-46.99" y="17.78"/>
<vertex x="-44.45" y="17.78"/>
<vertex x="-44.45" y="15.24"/>
<vertex x="-46.99" y="15.24"/>
</polygon>
<polygon width="0.254" layer="94">
<vertex x="-43.18" y="17.78"/>
<vertex x="-40.64" y="17.78"/>
<vertex x="-40.64" y="15.24"/>
<vertex x="-43.18" y="15.24"/>
</polygon>
<polygon width="0.254" layer="94">
<vertex x="-39.37" y="17.78"/>
<vertex x="-36.83" y="17.78"/>
<vertex x="-36.83" y="15.24"/>
<vertex x="-39.37" y="15.24"/>
</polygon>
<polygon width="0.254" layer="94">
<vertex x="-35.56" y="17.78"/>
<vertex x="-33.02" y="17.78"/>
<vertex x="-33.02" y="15.24"/>
<vertex x="-35.56" y="15.24"/>
</polygon>
<polygon width="0.254" layer="94">
<vertex x="-31.75" y="17.78"/>
<vertex x="-29.21" y="17.78"/>
<vertex x="-29.21" y="15.24"/>
<vertex x="-31.75" y="15.24"/>
</polygon>
<polygon width="0.254" layer="94">
<vertex x="-66.04" y="13.97"/>
<vertex x="-63.5" y="13.97"/>
<vertex x="-63.5" y="11.43"/>
<vertex x="-66.04" y="11.43"/>
</polygon>
<polygon width="0.254" layer="94">
<vertex x="-62.23" y="13.97"/>
<vertex x="-59.69" y="13.97"/>
<vertex x="-59.69" y="11.43"/>
<vertex x="-62.23" y="11.43"/>
</polygon>
<polygon width="0.254" layer="94">
<vertex x="-58.42" y="13.97"/>
<vertex x="-55.88" y="13.97"/>
<vertex x="-55.88" y="11.43"/>
<vertex x="-58.42" y="11.43"/>
</polygon>
<polygon width="0.254" layer="94">
<vertex x="-54.61" y="13.97"/>
<vertex x="-52.07" y="13.97"/>
<vertex x="-52.07" y="11.43"/>
<vertex x="-54.61" y="11.43"/>
</polygon>
<polygon width="0.254" layer="94">
<vertex x="-50.8" y="13.97"/>
<vertex x="-48.26" y="13.97"/>
<vertex x="-48.26" y="11.43"/>
<vertex x="-50.8" y="11.43"/>
</polygon>
<polygon width="0.254" layer="94">
<vertex x="-46.99" y="13.97"/>
<vertex x="-44.45" y="13.97"/>
<vertex x="-44.45" y="11.43"/>
<vertex x="-46.99" y="11.43"/>
</polygon>
<polygon width="0.254" layer="94">
<vertex x="-43.18" y="13.97"/>
<vertex x="-40.64" y="13.97"/>
<vertex x="-40.64" y="11.43"/>
<vertex x="-43.18" y="11.43"/>
</polygon>
<polygon width="0.254" layer="94">
<vertex x="-39.37" y="13.97"/>
<vertex x="-36.83" y="13.97"/>
<vertex x="-36.83" y="11.43"/>
<vertex x="-39.37" y="11.43"/>
</polygon>
<polygon width="0.254" layer="94">
<vertex x="-35.56" y="13.97"/>
<vertex x="-33.02" y="13.97"/>
<vertex x="-33.02" y="11.43"/>
<vertex x="-35.56" y="11.43"/>
</polygon>
<polygon width="0.254" layer="94">
<vertex x="-31.75" y="13.97"/>
<vertex x="-29.21" y="13.97"/>
<vertex x="-29.21" y="11.43"/>
<vertex x="-31.75" y="11.43"/>
</polygon>
<polygon width="0.254" layer="94">
<vertex x="-27.94" y="25.4"/>
<vertex x="-25.4" y="25.4"/>
<vertex x="-25.4" y="22.86"/>
<vertex x="-27.94" y="22.86"/>
</polygon>
<polygon width="0.254" layer="94">
<vertex x="-24.13" y="25.4"/>
<vertex x="-21.59" y="25.4"/>
<vertex x="-21.59" y="22.86"/>
<vertex x="-24.13" y="22.86"/>
</polygon>
<polygon width="0.254" layer="94">
<vertex x="-20.32" y="25.4"/>
<vertex x="-17.78" y="25.4"/>
<vertex x="-17.78" y="22.86"/>
<vertex x="-20.32" y="22.86"/>
</polygon>
<polygon width="0.254" layer="94">
<vertex x="-16.51" y="25.4"/>
<vertex x="-13.97" y="25.4"/>
<vertex x="-13.97" y="22.86"/>
<vertex x="-16.51" y="22.86"/>
</polygon>
<polygon width="0.254" layer="94">
<vertex x="-12.7" y="25.4"/>
<vertex x="-10.16" y="25.4"/>
<vertex x="-10.16" y="22.86"/>
<vertex x="-12.7" y="22.86"/>
</polygon>
<polygon width="0.254" layer="94">
<vertex x="-8.89" y="25.4"/>
<vertex x="-6.35" y="25.4"/>
<vertex x="-6.35" y="22.86"/>
<vertex x="-8.89" y="22.86"/>
</polygon>
<polygon width="0.254" layer="94">
<vertex x="-5.08" y="25.4"/>
<vertex x="-2.54" y="25.4"/>
<vertex x="-2.54" y="22.86"/>
<vertex x="-5.08" y="22.86"/>
</polygon>
<polygon width="0.254" layer="94">
<vertex x="-1.27" y="25.4"/>
<vertex x="1.27" y="25.4"/>
<vertex x="1.27" y="22.86"/>
<vertex x="-1.27" y="22.86"/>
</polygon>
<polygon width="0.254" layer="94">
<vertex x="2.54" y="25.4"/>
<vertex x="5.08" y="25.4"/>
<vertex x="5.08" y="22.86"/>
<vertex x="2.54" y="22.86"/>
</polygon>
<polygon width="0.254" layer="94">
<vertex x="6.35" y="25.4"/>
<vertex x="8.89" y="25.4"/>
<vertex x="8.89" y="22.86"/>
<vertex x="6.35" y="22.86"/>
</polygon>
<polygon width="0.254" layer="94">
<vertex x="-27.94" y="21.59"/>
<vertex x="-25.4" y="21.59"/>
<vertex x="-25.4" y="19.05"/>
<vertex x="-27.94" y="19.05"/>
</polygon>
<polygon width="0.254" layer="94">
<vertex x="-24.13" y="21.59"/>
<vertex x="-21.59" y="21.59"/>
<vertex x="-21.59" y="19.05"/>
<vertex x="-24.13" y="19.05"/>
</polygon>
<polygon width="0.254" layer="94">
<vertex x="-20.32" y="21.59"/>
<vertex x="-17.78" y="21.59"/>
<vertex x="-17.78" y="19.05"/>
<vertex x="-20.32" y="19.05"/>
</polygon>
<polygon width="0.254" layer="94">
<vertex x="-16.51" y="21.59"/>
<vertex x="-13.97" y="21.59"/>
<vertex x="-13.97" y="19.05"/>
<vertex x="-16.51" y="19.05"/>
</polygon>
<polygon width="0.254" layer="94">
<vertex x="-12.7" y="21.59"/>
<vertex x="-10.16" y="21.59"/>
<vertex x="-10.16" y="19.05"/>
<vertex x="-12.7" y="19.05"/>
</polygon>
<polygon width="0.254" layer="94">
<vertex x="-8.89" y="21.59"/>
<vertex x="-6.35" y="21.59"/>
<vertex x="-6.35" y="19.05"/>
<vertex x="-8.89" y="19.05"/>
</polygon>
<polygon width="0.254" layer="94">
<vertex x="-5.08" y="21.59"/>
<vertex x="-2.54" y="21.59"/>
<vertex x="-2.54" y="19.05"/>
<vertex x="-5.08" y="19.05"/>
</polygon>
<polygon width="0.254" layer="94">
<vertex x="-1.27" y="21.59"/>
<vertex x="1.27" y="21.59"/>
<vertex x="1.27" y="19.05"/>
<vertex x="-1.27" y="19.05"/>
</polygon>
<polygon width="0.254" layer="94">
<vertex x="2.54" y="21.59"/>
<vertex x="5.08" y="21.59"/>
<vertex x="5.08" y="19.05"/>
<vertex x="2.54" y="19.05"/>
</polygon>
<polygon width="0.254" layer="94">
<vertex x="6.35" y="21.59"/>
<vertex x="8.89" y="21.59"/>
<vertex x="8.89" y="19.05"/>
<vertex x="6.35" y="19.05"/>
</polygon>
<polygon width="0.254" layer="94">
<vertex x="-27.94" y="17.78"/>
<vertex x="-25.4" y="17.78"/>
<vertex x="-25.4" y="15.24"/>
<vertex x="-27.94" y="15.24"/>
</polygon>
<polygon width="0.254" layer="94">
<vertex x="-24.13" y="17.78"/>
<vertex x="-21.59" y="17.78"/>
<vertex x="-21.59" y="15.24"/>
<vertex x="-24.13" y="15.24"/>
</polygon>
<polygon width="0.254" layer="94">
<vertex x="-20.32" y="17.78"/>
<vertex x="-17.78" y="17.78"/>
<vertex x="-17.78" y="15.24"/>
<vertex x="-20.32" y="15.24"/>
</polygon>
<polygon width="0.254" layer="94">
<vertex x="-16.51" y="17.78"/>
<vertex x="-13.97" y="17.78"/>
<vertex x="-13.97" y="15.24"/>
<vertex x="-16.51" y="15.24"/>
</polygon>
<polygon width="0.254" layer="94">
<vertex x="-12.7" y="17.78"/>
<vertex x="-10.16" y="17.78"/>
<vertex x="-10.16" y="15.24"/>
<vertex x="-12.7" y="15.24"/>
</polygon>
<polygon width="0.254" layer="94">
<vertex x="-8.89" y="17.78"/>
<vertex x="-6.35" y="17.78"/>
<vertex x="-6.35" y="15.24"/>
<vertex x="-8.89" y="15.24"/>
</polygon>
<polygon width="0.254" layer="94">
<vertex x="-5.08" y="17.78"/>
<vertex x="-2.54" y="17.78"/>
<vertex x="-2.54" y="15.24"/>
<vertex x="-5.08" y="15.24"/>
</polygon>
<polygon width="0.254" layer="94">
<vertex x="-1.27" y="17.78"/>
<vertex x="1.27" y="17.78"/>
<vertex x="1.27" y="15.24"/>
<vertex x="-1.27" y="15.24"/>
</polygon>
<polygon width="0.254" layer="94">
<vertex x="2.54" y="17.78"/>
<vertex x="5.08" y="17.78"/>
<vertex x="5.08" y="15.24"/>
<vertex x="2.54" y="15.24"/>
</polygon>
<polygon width="0.254" layer="94">
<vertex x="6.35" y="17.78"/>
<vertex x="8.89" y="17.78"/>
<vertex x="8.89" y="15.24"/>
<vertex x="6.35" y="15.24"/>
</polygon>
<polygon width="0.254" layer="94">
<vertex x="-27.94" y="13.97"/>
<vertex x="-25.4" y="13.97"/>
<vertex x="-25.4" y="11.43"/>
<vertex x="-27.94" y="11.43"/>
</polygon>
<polygon width="0.254" layer="94">
<vertex x="-24.13" y="13.97"/>
<vertex x="-21.59" y="13.97"/>
<vertex x="-21.59" y="11.43"/>
<vertex x="-24.13" y="11.43"/>
</polygon>
<polygon width="0.254" layer="94">
<vertex x="-20.32" y="13.97"/>
<vertex x="-17.78" y="13.97"/>
<vertex x="-17.78" y="11.43"/>
<vertex x="-20.32" y="11.43"/>
</polygon>
<polygon width="0.254" layer="94">
<vertex x="-16.51" y="13.97"/>
<vertex x="-13.97" y="13.97"/>
<vertex x="-13.97" y="11.43"/>
<vertex x="-16.51" y="11.43"/>
</polygon>
<polygon width="0.254" layer="94">
<vertex x="-12.7" y="13.97"/>
<vertex x="-10.16" y="13.97"/>
<vertex x="-10.16" y="11.43"/>
<vertex x="-12.7" y="11.43"/>
</polygon>
<polygon width="0.254" layer="94">
<vertex x="-8.89" y="13.97"/>
<vertex x="-6.35" y="13.97"/>
<vertex x="-6.35" y="11.43"/>
<vertex x="-8.89" y="11.43"/>
</polygon>
<polygon width="0.254" layer="94">
<vertex x="-5.08" y="13.97"/>
<vertex x="-2.54" y="13.97"/>
<vertex x="-2.54" y="11.43"/>
<vertex x="-5.08" y="11.43"/>
</polygon>
<polygon width="0.254" layer="94">
<vertex x="-1.27" y="13.97"/>
<vertex x="1.27" y="13.97"/>
<vertex x="1.27" y="11.43"/>
<vertex x="-1.27" y="11.43"/>
</polygon>
<polygon width="0.254" layer="94">
<vertex x="2.54" y="13.97"/>
<vertex x="5.08" y="13.97"/>
<vertex x="5.08" y="11.43"/>
<vertex x="2.54" y="11.43"/>
</polygon>
<polygon width="0.254" layer="94">
<vertex x="6.35" y="13.97"/>
<vertex x="8.89" y="13.97"/>
<vertex x="8.89" y="11.43"/>
<vertex x="6.35" y="11.43"/>
</polygon>
<polygon width="0.254" layer="94">
<vertex x="10.16" y="40.64"/>
<vertex x="12.7" y="40.64"/>
<vertex x="12.7" y="38.1"/>
<vertex x="10.16" y="38.1"/>
</polygon>
<polygon width="0.254" layer="94">
<vertex x="13.97" y="40.64"/>
<vertex x="16.51" y="40.64"/>
<vertex x="16.51" y="38.1"/>
<vertex x="13.97" y="38.1"/>
</polygon>
<polygon width="0.254" layer="94">
<vertex x="17.78" y="40.64"/>
<vertex x="20.32" y="40.64"/>
<vertex x="20.32" y="38.1"/>
<vertex x="17.78" y="38.1"/>
</polygon>
<polygon width="0.254" layer="94">
<vertex x="21.59" y="40.64"/>
<vertex x="24.13" y="40.64"/>
<vertex x="24.13" y="38.1"/>
<vertex x="21.59" y="38.1"/>
</polygon>
<polygon width="0.254" layer="94">
<vertex x="25.4" y="40.64"/>
<vertex x="27.94" y="40.64"/>
<vertex x="27.94" y="38.1"/>
<vertex x="25.4" y="38.1"/>
</polygon>
<polygon width="0.254" layer="94">
<vertex x="29.21" y="40.64"/>
<vertex x="31.75" y="40.64"/>
<vertex x="31.75" y="38.1"/>
<vertex x="29.21" y="38.1"/>
</polygon>
<polygon width="0.254" layer="94">
<vertex x="33.02" y="40.64"/>
<vertex x="35.56" y="40.64"/>
<vertex x="35.56" y="38.1"/>
<vertex x="33.02" y="38.1"/>
</polygon>
<polygon width="0.254" layer="94">
<vertex x="10.16" y="36.83"/>
<vertex x="12.7" y="36.83"/>
<vertex x="12.7" y="34.29"/>
<vertex x="10.16" y="34.29"/>
</polygon>
<polygon width="0.254" layer="94">
<vertex x="13.97" y="36.83"/>
<vertex x="16.51" y="36.83"/>
<vertex x="16.51" y="34.29"/>
<vertex x="13.97" y="34.29"/>
</polygon>
<polygon width="0.254" layer="94">
<vertex x="17.78" y="36.83"/>
<vertex x="20.32" y="36.83"/>
<vertex x="20.32" y="34.29"/>
<vertex x="17.78" y="34.29"/>
</polygon>
<polygon width="0.254" layer="94">
<vertex x="21.59" y="36.83"/>
<vertex x="24.13" y="36.83"/>
<vertex x="24.13" y="34.29"/>
<vertex x="21.59" y="34.29"/>
</polygon>
<polygon width="0.254" layer="94">
<vertex x="25.4" y="36.83"/>
<vertex x="27.94" y="36.83"/>
<vertex x="27.94" y="34.29"/>
<vertex x="25.4" y="34.29"/>
</polygon>
<polygon width="0.254" layer="94">
<vertex x="29.21" y="36.83"/>
<vertex x="31.75" y="36.83"/>
<vertex x="31.75" y="34.29"/>
<vertex x="29.21" y="34.29"/>
</polygon>
<polygon width="0.254" layer="94">
<vertex x="33.02" y="36.83"/>
<vertex x="35.56" y="36.83"/>
<vertex x="35.56" y="34.29"/>
<vertex x="33.02" y="34.29"/>
</polygon>
<polygon width="0.254" layer="94">
<vertex x="10.16" y="33.02"/>
<vertex x="12.7" y="33.02"/>
<vertex x="12.7" y="30.48"/>
<vertex x="10.16" y="30.48"/>
</polygon>
<polygon width="0.254" layer="94">
<vertex x="13.97" y="33.02"/>
<vertex x="16.51" y="33.02"/>
<vertex x="16.51" y="30.48"/>
<vertex x="13.97" y="30.48"/>
</polygon>
<polygon width="0.254" layer="94">
<vertex x="17.78" y="33.02"/>
<vertex x="20.32" y="33.02"/>
<vertex x="20.32" y="30.48"/>
<vertex x="17.78" y="30.48"/>
</polygon>
<polygon width="0.254" layer="94">
<vertex x="21.59" y="33.02"/>
<vertex x="24.13" y="33.02"/>
<vertex x="24.13" y="30.48"/>
<vertex x="21.59" y="30.48"/>
</polygon>
<polygon width="0.254" layer="94">
<vertex x="25.4" y="33.02"/>
<vertex x="27.94" y="33.02"/>
<vertex x="27.94" y="30.48"/>
<vertex x="25.4" y="30.48"/>
</polygon>
<polygon width="0.254" layer="94">
<vertex x="29.21" y="33.02"/>
<vertex x="31.75" y="33.02"/>
<vertex x="31.75" y="30.48"/>
<vertex x="29.21" y="30.48"/>
</polygon>
<polygon width="0.254" layer="94">
<vertex x="33.02" y="33.02"/>
<vertex x="35.56" y="33.02"/>
<vertex x="35.56" y="30.48"/>
<vertex x="33.02" y="30.48"/>
</polygon>
<polygon width="0.254" layer="94">
<vertex x="10.16" y="29.21"/>
<vertex x="12.7" y="29.21"/>
<vertex x="12.7" y="26.67"/>
<vertex x="10.16" y="26.67"/>
</polygon>
<polygon width="0.254" layer="94">
<vertex x="13.97" y="29.21"/>
<vertex x="16.51" y="29.21"/>
<vertex x="16.51" y="26.67"/>
<vertex x="13.97" y="26.67"/>
</polygon>
<polygon width="0.254" layer="94">
<vertex x="17.78" y="29.21"/>
<vertex x="20.32" y="29.21"/>
<vertex x="20.32" y="26.67"/>
<vertex x="17.78" y="26.67"/>
</polygon>
<polygon width="0.254" layer="94">
<vertex x="21.59" y="29.21"/>
<vertex x="24.13" y="29.21"/>
<vertex x="24.13" y="26.67"/>
<vertex x="21.59" y="26.67"/>
</polygon>
<polygon width="0.254" layer="94">
<vertex x="25.4" y="29.21"/>
<vertex x="27.94" y="29.21"/>
<vertex x="27.94" y="26.67"/>
<vertex x="25.4" y="26.67"/>
</polygon>
<polygon width="0.254" layer="94">
<vertex x="29.21" y="29.21"/>
<vertex x="31.75" y="29.21"/>
<vertex x="31.75" y="26.67"/>
<vertex x="29.21" y="26.67"/>
</polygon>
<polygon width="0.254" layer="94">
<vertex x="33.02" y="29.21"/>
<vertex x="35.56" y="29.21"/>
<vertex x="35.56" y="26.67"/>
<vertex x="33.02" y="26.67"/>
</polygon>
<polygon width="0.254" layer="94">
<vertex x="10.16" y="25.4"/>
<vertex x="12.7" y="25.4"/>
<vertex x="12.7" y="22.86"/>
<vertex x="10.16" y="22.86"/>
</polygon>
<polygon width="0.254" layer="94">
<vertex x="13.97" y="25.4"/>
<vertex x="16.51" y="25.4"/>
<vertex x="16.51" y="22.86"/>
<vertex x="13.97" y="22.86"/>
</polygon>
<polygon width="0.254" layer="94">
<vertex x="17.78" y="25.4"/>
<vertex x="20.32" y="25.4"/>
<vertex x="20.32" y="22.86"/>
<vertex x="17.78" y="22.86"/>
</polygon>
<polygon width="0.254" layer="94">
<vertex x="21.59" y="25.4"/>
<vertex x="24.13" y="25.4"/>
<vertex x="24.13" y="22.86"/>
<vertex x="21.59" y="22.86"/>
</polygon>
<polygon width="0.254" layer="94">
<vertex x="25.4" y="25.4"/>
<vertex x="27.94" y="25.4"/>
<vertex x="27.94" y="22.86"/>
<vertex x="25.4" y="22.86"/>
</polygon>
<polygon width="0.254" layer="94">
<vertex x="29.21" y="25.4"/>
<vertex x="31.75" y="25.4"/>
<vertex x="31.75" y="22.86"/>
<vertex x="29.21" y="22.86"/>
</polygon>
<polygon width="0.254" layer="94">
<vertex x="33.02" y="25.4"/>
<vertex x="35.56" y="25.4"/>
<vertex x="35.56" y="22.86"/>
<vertex x="33.02" y="22.86"/>
</polygon>
<polygon width="0.254" layer="94">
<vertex x="10.16" y="21.59"/>
<vertex x="12.7" y="21.59"/>
<vertex x="12.7" y="19.05"/>
<vertex x="10.16" y="19.05"/>
</polygon>
<polygon width="0.254" layer="94">
<vertex x="13.97" y="21.59"/>
<vertex x="16.51" y="21.59"/>
<vertex x="16.51" y="19.05"/>
<vertex x="13.97" y="19.05"/>
</polygon>
<polygon width="0.254" layer="94">
<vertex x="17.78" y="21.59"/>
<vertex x="20.32" y="21.59"/>
<vertex x="20.32" y="19.05"/>
<vertex x="17.78" y="19.05"/>
</polygon>
<polygon width="0.254" layer="94">
<vertex x="21.59" y="21.59"/>
<vertex x="24.13" y="21.59"/>
<vertex x="24.13" y="19.05"/>
<vertex x="21.59" y="19.05"/>
</polygon>
<polygon width="0.254" layer="94">
<vertex x="25.4" y="21.59"/>
<vertex x="27.94" y="21.59"/>
<vertex x="27.94" y="19.05"/>
<vertex x="25.4" y="19.05"/>
</polygon>
<polygon width="0.254" layer="94">
<vertex x="29.21" y="21.59"/>
<vertex x="31.75" y="21.59"/>
<vertex x="31.75" y="19.05"/>
<vertex x="29.21" y="19.05"/>
</polygon>
<polygon width="0.254" layer="94">
<vertex x="33.02" y="21.59"/>
<vertex x="35.56" y="21.59"/>
<vertex x="35.56" y="19.05"/>
<vertex x="33.02" y="19.05"/>
</polygon>
<polygon width="0.254" layer="94">
<vertex x="10.16" y="17.78"/>
<vertex x="12.7" y="17.78"/>
<vertex x="12.7" y="15.24"/>
<vertex x="10.16" y="15.24"/>
</polygon>
<polygon width="0.254" layer="94">
<vertex x="13.97" y="17.78"/>
<vertex x="16.51" y="17.78"/>
<vertex x="16.51" y="15.24"/>
<vertex x="13.97" y="15.24"/>
</polygon>
<polygon width="0.254" layer="94">
<vertex x="17.78" y="17.78"/>
<vertex x="20.32" y="17.78"/>
<vertex x="20.32" y="15.24"/>
<vertex x="17.78" y="15.24"/>
</polygon>
<polygon width="0.254" layer="94">
<vertex x="21.59" y="17.78"/>
<vertex x="24.13" y="17.78"/>
<vertex x="24.13" y="15.24"/>
<vertex x="21.59" y="15.24"/>
</polygon>
<polygon width="0.254" layer="94">
<vertex x="25.4" y="17.78"/>
<vertex x="27.94" y="17.78"/>
<vertex x="27.94" y="15.24"/>
<vertex x="25.4" y="15.24"/>
</polygon>
<polygon width="0.254" layer="94">
<vertex x="29.21" y="17.78"/>
<vertex x="31.75" y="17.78"/>
<vertex x="31.75" y="15.24"/>
<vertex x="29.21" y="15.24"/>
</polygon>
<polygon width="0.254" layer="94">
<vertex x="33.02" y="17.78"/>
<vertex x="35.56" y="17.78"/>
<vertex x="35.56" y="15.24"/>
<vertex x="33.02" y="15.24"/>
</polygon>
<polygon width="0.254" layer="94">
<vertex x="10.16" y="13.97"/>
<vertex x="12.7" y="13.97"/>
<vertex x="12.7" y="11.43"/>
<vertex x="10.16" y="11.43"/>
</polygon>
<polygon width="0.254" layer="94">
<vertex x="13.97" y="13.97"/>
<vertex x="16.51" y="13.97"/>
<vertex x="16.51" y="11.43"/>
<vertex x="13.97" y="11.43"/>
</polygon>
<polygon width="0.254" layer="94">
<vertex x="17.78" y="13.97"/>
<vertex x="20.32" y="13.97"/>
<vertex x="20.32" y="11.43"/>
<vertex x="17.78" y="11.43"/>
</polygon>
<polygon width="0.254" layer="94">
<vertex x="21.59" y="13.97"/>
<vertex x="24.13" y="13.97"/>
<vertex x="24.13" y="11.43"/>
<vertex x="21.59" y="11.43"/>
</polygon>
<polygon width="0.254" layer="94">
<vertex x="25.4" y="13.97"/>
<vertex x="27.94" y="13.97"/>
<vertex x="27.94" y="11.43"/>
<vertex x="25.4" y="11.43"/>
</polygon>
<polygon width="0.254" layer="94">
<vertex x="29.21" y="13.97"/>
<vertex x="31.75" y="13.97"/>
<vertex x="31.75" y="11.43"/>
<vertex x="29.21" y="11.43"/>
</polygon>
<polygon width="0.254" layer="94">
<vertex x="33.02" y="13.97"/>
<vertex x="35.56" y="13.97"/>
<vertex x="35.56" y="11.43"/>
<vertex x="33.02" y="11.43"/>
</polygon>
<wire x1="-68.58" y1="-1.27" x2="-68.58" y2="43.18" width="0.254" layer="94"/>
<wire x1="-68.58" y1="43.18" x2="38.1" y2="43.18" width="0.254" layer="94"/>
<wire x1="38.1" y1="43.18" x2="38.1" y2="-1.27" width="0.254" layer="94"/>
<wire x1="38.1" y1="-1.27" x2="-68.58" y2="-1.27" width="0.254" layer="94"/>
<text x="-64.77" y="8.89" size="1.27" layer="94">LCD 128x64px</text>
<text x="-66.04" y="45.72" size="1.27" layer="95">&gt;NAME</text>
<text x="27.94" y="45.72" size="1.27" layer="95">&gt;VALUE</text>
</symbol>
<symbol name="LCD_2X16">
<description>Source: &lt;a href="http://www.lcd-module.de/pdf/doma/dip162-d.pdf"&gt; Data sheet &lt;/a&gt;</description>
<wire x1="-21.59" y1="-7.62" x2="24.13" y2="-7.62" width="0.2032" layer="94"/>
<wire x1="24.13" y1="-7.62" x2="24.13" y2="12.7" width="0.2032" layer="94"/>
<wire x1="24.13" y1="12.7" x2="-21.59" y2="12.7" width="0.2032" layer="94"/>
<wire x1="-21.59" y1="12.7" x2="-21.59" y2="-7.62" width="0.2032" layer="94"/>
<text x="-10.16" y="10.668" size="1.524" layer="94">LCD DISPLAY 16x2</text>
<text x="-21.59" y="13.97" size="1.778" layer="95">&gt;NAME</text>
<text x="-1.27" y="13.97" size="1.778" layer="96">&gt;VALUE</text>
<rectangle x1="-19.05" y1="6.604" x2="-16.764" y2="10.16" layer="94"/>
<rectangle x1="-19.05" y1="2.54" x2="-16.764" y2="6.096" layer="94"/>
<rectangle x1="-16.51" y1="6.604" x2="-14.224" y2="10.16" layer="94"/>
<rectangle x1="-16.51" y1="2.54" x2="-14.224" y2="6.096" layer="94"/>
<rectangle x1="-13.97" y1="6.604" x2="-11.684" y2="10.16" layer="94"/>
<rectangle x1="-13.97" y1="2.54" x2="-11.684" y2="6.096" layer="94"/>
<rectangle x1="-11.43" y1="6.604" x2="-9.144" y2="10.16" layer="94"/>
<rectangle x1="-11.43" y1="2.54" x2="-9.144" y2="6.096" layer="94"/>
<rectangle x1="-8.89" y1="6.604" x2="-6.604" y2="10.16" layer="94"/>
<rectangle x1="-8.89" y1="2.54" x2="-6.604" y2="6.096" layer="94"/>
<rectangle x1="-6.35" y1="6.604" x2="-4.064" y2="10.16" layer="94"/>
<rectangle x1="-6.35" y1="2.54" x2="-4.064" y2="6.096" layer="94"/>
<rectangle x1="-3.81" y1="6.604" x2="-1.524" y2="10.16" layer="94"/>
<rectangle x1="-3.81" y1="2.54" x2="-1.524" y2="6.096" layer="94"/>
<rectangle x1="-1.27" y1="6.604" x2="1.016" y2="10.16" layer="94"/>
<rectangle x1="-1.27" y1="2.54" x2="1.016" y2="6.096" layer="94"/>
<rectangle x1="1.27" y1="6.604" x2="3.556" y2="10.16" layer="94"/>
<rectangle x1="1.27" y1="2.54" x2="3.556" y2="6.096" layer="94"/>
<rectangle x1="3.81" y1="6.604" x2="6.096" y2="10.16" layer="94"/>
<rectangle x1="3.81" y1="2.54" x2="6.096" y2="6.096" layer="94"/>
<rectangle x1="6.35" y1="6.604" x2="8.636" y2="10.16" layer="94"/>
<rectangle x1="6.35" y1="2.54" x2="8.636" y2="6.096" layer="94"/>
<rectangle x1="8.89" y1="6.604" x2="11.176" y2="10.16" layer="94"/>
<rectangle x1="8.89" y1="2.54" x2="11.176" y2="6.096" layer="94"/>
<rectangle x1="11.43" y1="6.604" x2="13.716" y2="10.16" layer="94"/>
<rectangle x1="11.43" y1="2.54" x2="13.716" y2="6.096" layer="94"/>
<rectangle x1="13.97" y1="6.604" x2="16.256" y2="10.16" layer="94"/>
<rectangle x1="13.97" y1="2.54" x2="16.256" y2="6.096" layer="94"/>
<rectangle x1="16.51" y1="6.604" x2="18.796" y2="10.16" layer="94"/>
<rectangle x1="16.51" y1="2.54" x2="18.796" y2="6.096" layer="94"/>
<rectangle x1="19.05" y1="6.604" x2="21.336" y2="10.16" layer="94"/>
<rectangle x1="19.05" y1="2.54" x2="21.336" y2="6.096" layer="94"/>
<pin name="VSS" x="-20.32" y="-10.16" length="short" direction="pwr" rot="R90"/>
<pin name="VDD" x="-17.78" y="-10.16" length="short" direction="pwr" rot="R90"/>
<pin name="RS" x="-12.7" y="-10.16" length="short" direction="in" rot="R90"/>
<pin name="R/W" x="-10.16" y="-10.16" length="short" direction="in" rot="R90"/>
<pin name="E" x="-7.62" y="-10.16" length="short" direction="in" rot="R90"/>
<pin name="D0" x="-5.08" y="-10.16" length="short" direction="in" rot="R90"/>
<pin name="D1" x="-2.54" y="-10.16" length="short" direction="in" rot="R90"/>
<pin name="D2" x="0" y="-10.16" length="short" direction="in" rot="R90"/>
<pin name="D3" x="2.54" y="-10.16" length="short" direction="in" rot="R90"/>
<pin name="D4" x="5.08" y="-10.16" length="short" direction="in" rot="R90"/>
<pin name="D5" x="7.62" y="-10.16" length="short" direction="in" rot="R90"/>
<pin name="D6" x="10.16" y="-10.16" length="short" direction="in" rot="R90"/>
<pin name="D7" x="12.7" y="-10.16" length="short" direction="in" rot="R90"/>
<pin name="VEE" x="-15.24" y="-10.16" length="short" direction="pwr" rot="R90"/>
<pin name="A" x="20.32" y="-10.16" length="short" direction="pas" rot="R90"/>
<pin name="C" x="22.86" y="-10.16" length="short" direction="pas" rot="R90"/>
</symbol>
</symbols>
<devicesets>
<deviceset name="YB12864ZB" prefix="DS">
<gates>
<gate name="G$1" symbol="YB12864ZB" x="17.78" y="-15.24"/>
</gates>
<devices>
<device name="" package="YB12864ZB">
<connects>
<connect gate="G$1" pin="!RST" pad="!RST"/>
<connect gate="G$1" pin="DB0" pad="DB0"/>
<connect gate="G$1" pin="DB1" pad="DB1"/>
<connect gate="G$1" pin="DB2" pad="DB2"/>
<connect gate="G$1" pin="DB3" pad="DB3"/>
<connect gate="G$1" pin="DB4" pad="DB4"/>
<connect gate="G$1" pin="DB5" pad="DB5"/>
<connect gate="G$1" pin="DB6" pad="DB6"/>
<connect gate="G$1" pin="DB7" pad="DB7"/>
<connect gate="G$1" pin="E(SCLK)" pad="E(SCLK)"/>
<connect gate="G$1" pin="LEDA" pad="LEDA"/>
<connect gate="G$1" pin="LEDB" pad="LEDB"/>
<connect gate="G$1" pin="NC" pad="NC"/>
<connect gate="G$1" pin="P!S!B" pad="P!S!B"/>
<connect gate="G$1" pin="R!W!(SID)" pad="R!W!(SID)"/>
<connect gate="G$1" pin="RS(CS)" pad="RS(CS)"/>
<connect gate="G$1" pin="V0" pad="V0"/>
<connect gate="G$1" pin="VDD" pad="VDD"/>
<connect gate="G$1" pin="VOUT" pad="VOUT"/>
<connect gate="G$1" pin="VSS" pad="VSS"/>
</connects>
<technologies>
<technology name=""/>
</technologies>
</device>
</devices>
</deviceset>
<deviceset name="LCD0216" prefix="DS">
<gates>
<gate name="G$1" symbol="LCD_2X16" x="0" y="0"/>
</gates>
<devices>
<device name="" package="LCD_2X16">
<connects>
<connect gate="G$1" pin="A" pad="15"/>
<connect gate="G$1" pin="C" pad="16"/>
<connect gate="G$1" pin="D0" pad="7"/>
<connect gate="G$1" pin="D1" pad="8"/>
<connect gate="G$1" pin="D2" pad="9"/>
<connect gate="G$1" pin="D3" pad="10"/>
<connect gate="G$1" pin="D4" pad="11"/>
<connect gate="G$1" pin="D5" pad="12"/>
<connect gate="G$1" pin="D6" pad="13"/>
<connect gate="G$1" pin="D7" pad="14"/>
<connect gate="G$1" pin="E" pad="6"/>
<connect gate="G$1" pin="R/W" pad="5"/>
<connect gate="G$1" pin="RS" pad="4"/>
<connect gate="G$1" pin="VDD" pad="2"/>
<connect gate="G$1" pin="VEE" pad="3"/>
<connect gate="G$1" pin="VSS" pad="1"/>
</connects>
<technologies>
<technology name=""/>
</technologies>
</device>
</devices>
</deviceset>
</devicesets>
</library>
</drawing>
</eagle>
