<?xml version="1.0" encoding="utf-8"?>
<!DOCTYPE eagle SYSTEM "eagle.dtd">
<eagle version="9.1.1">
<drawing>
<settings>
<setting alwaysvectorfont="no"/>
<setting verticaltext="up"/>
</settings>
<grid distance="0.1" unitdist="inch" unit="inch" style="lines" multiple="1" display="no" altdistance="0.01" altunitdist="inch" altunit="inch"/>
<layers>
<layer number="1" name="Top" color="4" fill="1" visible="yes" active="yes"/>
<layer number="2" name="Route2" color="16" fill="1" visible="no" active="yes"/>
<layer number="3" name="Route3" color="17" fill="1" visible="no" active="yes"/>
<layer number="4" name="Route4" color="18" fill="1" visible="no" active="yes"/>
<layer number="5" name="Route5" color="19" fill="1" visible="no" active="yes"/>
<layer number="6" name="Route6" color="25" fill="1" visible="no" active="yes"/>
<layer number="7" name="Route7" color="26" fill="1" visible="no" active="yes"/>
<layer number="8" name="Route8" color="27" fill="1" visible="no" active="yes"/>
<layer number="9" name="Route9" color="28" fill="1" visible="no" active="yes"/>
<layer number="10" name="Route10" color="29" fill="1" visible="no" active="yes"/>
<layer number="11" name="Route11" color="30" fill="1" visible="no" active="yes"/>
<layer number="12" name="Route12" color="20" fill="1" visible="no" active="yes"/>
<layer number="13" name="Route13" color="21" fill="1" visible="no" active="yes"/>
<layer number="14" name="Route14" color="22" fill="1" visible="no" active="yes"/>
<layer number="15" name="Route15" color="23" fill="1" visible="no" active="yes"/>
<layer number="16" name="Bottom" color="1" fill="1" visible="yes" active="yes"/>
<layer number="17" name="Pads" color="2" fill="1" visible="yes" active="yes"/>
<layer number="18" name="Vias" color="2" fill="1" visible="yes" active="yes"/>
<layer number="19" name="Unrouted" color="6" fill="1" visible="yes" active="yes"/>
<layer number="20" name="Dimension" color="24" fill="1" visible="yes" active="yes"/>
<layer number="21" name="tPlace" color="7" fill="1" visible="yes" active="yes"/>
<layer number="22" name="bPlace" color="7" fill="1" visible="yes" active="yes"/>
<layer number="23" name="tOrigins" color="15" fill="1" visible="yes" active="yes"/>
<layer number="24" name="bOrigins" color="15" fill="1" visible="yes" active="yes"/>
<layer number="25" name="tNames" color="7" fill="1" visible="yes" active="yes"/>
<layer number="26" name="bNames" color="7" fill="1" visible="yes" active="yes"/>
<layer number="27" name="tValues" color="7" fill="1" visible="yes" active="yes"/>
<layer number="28" name="bValues" color="7" fill="1" visible="yes" active="yes"/>
<layer number="29" name="tStop" color="7" fill="3" visible="no" active="yes"/>
<layer number="30" name="bStop" color="7" fill="6" visible="no" active="yes"/>
<layer number="31" name="tCream" color="7" fill="4" visible="no" active="yes"/>
<layer number="32" name="bCream" color="7" fill="5" visible="no" active="yes"/>
<layer number="33" name="tFinish" color="6" fill="3" visible="no" active="yes"/>
<layer number="34" name="bFinish" color="6" fill="6" visible="no" active="yes"/>
<layer number="35" name="tGlue" color="7" fill="4" visible="no" active="yes"/>
<layer number="36" name="bGlue" color="7" fill="5" visible="no" active="yes"/>
<layer number="37" name="tTest" color="7" fill="1" visible="no" active="yes"/>
<layer number="38" name="bTest" color="7" fill="1" visible="no" active="yes"/>
<layer number="39" name="tKeepout" color="4" fill="11" visible="yes" active="yes"/>
<layer number="40" name="bKeepout" color="1" fill="11" visible="yes" active="yes"/>
<layer number="41" name="tRestrict" color="4" fill="10" visible="yes" active="yes"/>
<layer number="42" name="bRestrict" color="1" fill="10" visible="yes" active="yes"/>
<layer number="43" name="vRestrict" color="2" fill="10" visible="yes" active="yes"/>
<layer number="44" name="Drills" color="7" fill="1" visible="no" active="yes"/>
<layer number="45" name="Holes" color="7" fill="1" visible="no" active="yes"/>
<layer number="46" name="Milling" color="3" fill="1" visible="no" active="yes"/>
<layer number="47" name="Measures" color="7" fill="1" visible="no" active="yes"/>
<layer number="48" name="Document" color="7" fill="1" visible="yes" active="yes"/>
<layer number="49" name="Reference" color="7" fill="1" visible="yes" active="yes"/>
<layer number="51" name="tDocu" color="7" fill="1" visible="yes" active="yes"/>
<layer number="52" name="bDocu" color="7" fill="1" visible="yes" active="yes"/>
<layer number="88" name="SimResults" color="9" fill="1" visible="yes" active="yes"/>
<layer number="89" name="SimProbes" color="9" fill="1" visible="yes" active="yes"/>
<layer number="90" name="Modules" color="5" fill="1" visible="yes" active="yes"/>
<layer number="91" name="Nets" color="2" fill="1" visible="yes" active="yes"/>
<layer number="92" name="Busses" color="1" fill="1" visible="yes" active="yes"/>
<layer number="93" name="Pins" color="2" fill="1" visible="no" active="yes"/>
<layer number="94" name="Symbols" color="4" fill="1" visible="yes" active="yes"/>
<layer number="95" name="Names" color="7" fill="1" visible="yes" active="yes"/>
<layer number="96" name="Values" color="7" fill="1" visible="yes" active="yes"/>
<layer number="97" name="Info" color="7" fill="1" visible="yes" active="yes"/>
<layer number="98" name="Guide" color="6" fill="1" visible="yes" active="yes"/>
</layers>
<library>
<packages>
<package name="C1206K">
<description>&lt;b&gt;Ceramic Chip Capacitor KEMET 1206 Reflow solder&lt;/b&gt;&lt;p&gt;
Metric Code Size 3216</description>
<wire x1="-1.525" y1="0.75" x2="1.525" y2="0.75" width="0.1016" layer="51"/>
<wire x1="1.525" y1="-0.75" x2="-1.525" y2="-0.75" width="0.1016" layer="51"/>
<smd name="1" x="-1.5" y="0" dx="1.5" dy="2" layer="1"/>
<smd name="2" x="1.5" y="0" dx="1.5" dy="2" layer="1"/>
<text x="-2.5398" y="1.2778" size="1.016" layer="25">&gt;NAME</text>
<text x="2.5398" y="-1.2782" size="1.016" layer="27" rot="R180">&gt;VALUE</text>
<rectangle x1="-1.6" y1="-0.8" x2="-1.1" y2="0.8" layer="51"/>
<rectangle x1="1.1" y1="-0.8" x2="1.6" y2="0.8" layer="51"/>
</package>
</packages>
<symbols>
<symbol name="PTC">
<wire x1="-2.54" y1="0.889" x2="2.54" y2="0.889" width="0.254" layer="94"/>
<wire x1="2.54" y1="-0.889" x2="-2.54" y2="-0.889" width="0.254" layer="94"/>
<wire x1="2.54" y1="0.889" x2="2.54" y2="-0.889" width="0.254" layer="94"/>
<wire x1="-2.54" y1="0.889" x2="-2.54" y2="-0.889" width="0.254" layer="94"/>
<wire x1="1.524" y1="1.524" x2="-1.778" y2="-1.778" width="0.1524" layer="94"/>
<wire x1="-1.778" y1="-1.778" x2="-2.54" y2="-1.778" width="0.1524" layer="94"/>
<text x="-5.0546" y="2.54" size="1.778" layer="95">&gt;NAME</text>
<text x="5.08" y="-2.54" size="1.778" layer="96" rot="R180">&gt;VALUE</text>
<pin name="2" x="5.08" y="0" visible="off" length="short" direction="pas" swaplevel="1" rot="R180"/>
<pin name="1" x="-5.08" y="0" visible="off" length="short" direction="pas" swaplevel="1"/>
</symbol>
</symbols>
<devicesets>
<deviceset name="0ZCJ0010FF2E" prefix="F">
<gates>
<gate name="G$1" symbol="PTC" x="0" y="0"/>
</gates>
<devices>
<device name="" package="C1206K">
<connects>
<connect gate="G$1" pin="1" pad="1"/>
<connect gate="G$1" pin="2" pad="2"/>
</connects>
<technologies>
<technology name=""/>
</technologies>
</device>
</devices>
</deviceset>
</devicesets>
</library>
</drawing>
</eagle>
