<?xml version="1.0" encoding="utf-8"?>
<!DOCTYPE eagle SYSTEM "eagle.dtd">
<eagle version="9.1.0">
<drawing>
<settings>
<setting alwaysvectorfont="no"/>
<setting verticaltext="up"/>
</settings>
<grid distance="0.1" unitdist="inch" unit="mil" style="lines" multiple="1" display="yes" altdistance="25" altunitdist="mil" altunit="mil"/>
<layers>
<layer number="1" name="Top" color="4" fill="1" visible="yes" active="yes"/>
<layer number="16" name="Bottom" color="1" fill="1" visible="yes" active="yes"/>
<layer number="17" name="Pads" color="2" fill="1" visible="yes" active="yes"/>
<layer number="18" name="Vias" color="2" fill="1" visible="yes" active="yes"/>
<layer number="19" name="Unrouted" color="6" fill="1" visible="yes" active="yes"/>
<layer number="20" name="Dimension" color="24" fill="1" visible="yes" active="yes"/>
<layer number="21" name="tPlace" color="7" fill="1" visible="yes" active="yes"/>
<layer number="22" name="bPlace" color="7" fill="1" visible="yes" active="yes"/>
<layer number="23" name="tOrigins" color="15" fill="1" visible="yes" active="yes"/>
<layer number="24" name="bOrigins" color="15" fill="1" visible="yes" active="yes"/>
<layer number="25" name="tNames" color="7" fill="1" visible="yes" active="yes"/>
<layer number="26" name="bNames" color="7" fill="1" visible="yes" active="yes"/>
<layer number="27" name="tValues" color="7" fill="1" visible="yes" active="yes"/>
<layer number="28" name="bValues" color="7" fill="1" visible="yes" active="yes"/>
<layer number="29" name="tStop" color="7" fill="3" visible="no" active="yes"/>
<layer number="30" name="bStop" color="7" fill="6" visible="no" active="yes"/>
<layer number="31" name="tCream" color="7" fill="4" visible="no" active="yes"/>
<layer number="32" name="bCream" color="7" fill="5" visible="no" active="yes"/>
<layer number="33" name="tFinish" color="6" fill="3" visible="no" active="yes"/>
<layer number="34" name="bFinish" color="6" fill="6" visible="no" active="yes"/>
<layer number="35" name="tGlue" color="7" fill="4" visible="no" active="yes"/>
<layer number="36" name="bGlue" color="7" fill="5" visible="no" active="yes"/>
<layer number="37" name="tTest" color="7" fill="1" visible="no" active="yes"/>
<layer number="38" name="bTest" color="7" fill="1" visible="no" active="yes"/>
<layer number="39" name="tKeepout" color="4" fill="11" visible="yes" active="yes"/>
<layer number="40" name="bKeepout" color="1" fill="11" visible="yes" active="yes"/>
<layer number="41" name="tRestrict" color="4" fill="10" visible="yes" active="yes"/>
<layer number="42" name="bRestrict" color="1" fill="10" visible="yes" active="yes"/>
<layer number="43" name="vRestrict" color="2" fill="10" visible="yes" active="yes"/>
<layer number="44" name="Drills" color="7" fill="1" visible="no" active="yes"/>
<layer number="45" name="Holes" color="7" fill="1" visible="yes" active="yes"/>
<layer number="46" name="Milling" color="3" fill="1" visible="no" active="yes"/>
<layer number="47" name="Measures" color="7" fill="1" visible="no" active="yes"/>
<layer number="48" name="Document" color="7" fill="1" visible="yes" active="yes"/>
<layer number="49" name="Reference" color="7" fill="1" visible="yes" active="yes"/>
<layer number="51" name="tDocu" color="7" fill="1" visible="yes" active="yes"/>
<layer number="52" name="bDocu" color="7" fill="1" visible="yes" active="yes"/>
<layer number="88" name="SimResults" color="9" fill="1" visible="yes" active="yes"/>
<layer number="89" name="SimProbes" color="9" fill="1" visible="yes" active="yes"/>
<layer number="90" name="Modules" color="5" fill="1" visible="yes" active="yes"/>
<layer number="91" name="Nets" color="2" fill="1" visible="yes" active="yes"/>
<layer number="92" name="Busses" color="1" fill="1" visible="yes" active="yes"/>
<layer number="93" name="Pins" color="2" fill="1" visible="yes" active="yes"/>
<layer number="94" name="Symbols" color="4" fill="1" visible="yes" active="yes"/>
<layer number="95" name="Names" color="7" fill="1" visible="yes" active="yes"/>
<layer number="96" name="Values" color="7" fill="1" visible="yes" active="yes"/>
<layer number="97" name="Info" color="7" fill="1" visible="yes" active="yes"/>
<layer number="98" name="Guide" color="6" fill="1" visible="yes" active="yes"/>
</layers>
<library>
<packages>
<package name="RPI_ZERO&amp;3_REVERSED">
<description>Footprintf for: Rapsberry Pi 3, 3+, Zero, Zero W&lt;br&gt;
Layer: Top</description>
<wire x1="48" y1="3" x2="48" y2="62" width="0.127" layer="22"/>
<wire x1="78" y1="62" x2="78" y2="3" width="0.127" layer="22"/>
<wire x1="75" y1="0" x2="51" y2="0" width="0.127" layer="22"/>
<wire x1="78" y1="3" x2="75" y2="0" width="0.127" layer="22" curve="-90"/>
<wire x1="51" y1="0" x2="48" y2="3" width="0.127" layer="22" curve="-90"/>
<wire x1="78" y1="62" x2="75" y2="65" width="0.127" layer="22" curve="90"/>
<wire x1="51" y1="65" x2="48" y2="62" width="0.127" layer="22" curve="90"/>
<hole x="51.5" y="3.5" drill="3.2"/>
<hole x="51.5" y="61.5" drill="3.2"/>
<hole x="74.5" y="61.5" drill="3.2"/>
<hole x="74.5" y="3.5" drill="3.2"/>
<wire x1="22" y1="3" x2="22" y2="24" width="0.127" layer="22"/>
<wire x1="22" y1="24" x2="22" y2="43" width="0.127" layer="22"/>
<wire x1="22" y1="47" x2="22" y2="82" width="0.127" layer="22"/>
<wire x1="25" y1="85" x2="75" y2="85" width="0.127" layer="22"/>
<hole x="25.5" y="3.5" drill="3.2"/>
<hole x="25.5" y="61.5" drill="3.2"/>
<circle x="25.5" y="61.5" radius="2.12131875" width="0.127" layer="40"/>
<circle x="25.5" y="61.5" radius="2.12131875" width="0.127" layer="39"/>
<circle x="25.5" y="3.5" radius="2.12131875" width="0.127" layer="39"/>
<circle x="25.5" y="3.5" radius="2.12131875" width="0.127" layer="40"/>
<circle x="51.5" y="3.5" radius="2.12131875" width="0.127" layer="40"/>
<circle x="51.5" y="3.5" radius="2.12131875" width="0.127" layer="39"/>
<circle x="74.5" y="3.5" radius="2.12131875" width="0.127" layer="39"/>
<circle x="74.5" y="3.5" radius="2.12131875" width="0.127" layer="40"/>
<circle x="74.5" y="61.5" radius="2.12131875" width="0.127" layer="40"/>
<circle x="74.5" y="61.5" radius="2.12131875" width="0.127" layer="39"/>
<circle x="51.5" y="61.5" radius="2.12131875" width="0.127" layer="39"/>
<circle x="51.5" y="61.5" radius="2.12131875" width="0.127" layer="40"/>
<wire x1="25" y1="0" x2="22" y2="3" width="0.127" layer="22" curve="-90"/>
<wire x1="22" y1="82" x2="25" y2="85" width="0.127" layer="22" curve="-90"/>
<wire x1="75" y1="85" x2="78" y2="82" width="0.127" layer="22" curve="-90"/>
<wire x1="78" y1="82" x2="78" y2="62" width="0.127" layer="22"/>
<wire x1="78" y1="3" x2="75" y2="0" width="0.127" layer="22" curve="-90"/>
<wire x1="51" y1="0" x2="25" y2="0" width="0.127" layer="22"/>
<pad name="GND@6" x="75.77" y="31.23" drill="0.8" diameter="1.4224" rot="R90"/>
<pad name="GPIO10/MOSI" x="73.23" y="31.23" drill="0.8" diameter="1.4224" rot="R90"/>
<pad name="GPIO24" x="75.77" y="28.69" drill="0.8" diameter="1.4224" rot="R90"/>
<pad name="3V3@2" x="73.23" y="28.69" drill="0.8" diameter="1.4224" rot="R90"/>
<pad name="GPIO25" x="75.77" y="33.77" drill="0.8" diameter="1.4224" rot="R90"/>
<pad name="GPIO9/MISO" x="73.23" y="33.77" drill="0.8" diameter="1.4224" rot="R90"/>
<pad name="GPIO8" x="75.77" y="36.31" drill="0.8" diameter="1.4224" rot="R90"/>
<pad name="GPIO11/SCLK" x="73.23" y="36.31" drill="0.8" diameter="1.4224" rot="R90"/>
<pad name="GPIO7" x="75.77" y="38.85" drill="0.8" diameter="1.4224" rot="R90"/>
<pad name="GND@2" x="73.23" y="38.85" drill="0.8" diameter="1.4224" rot="R90"/>
<pad name="ID_SC" x="75.77" y="41.39" drill="0.8" diameter="1.4224" rot="R90"/>
<pad name="ID_SD" x="73.23" y="41.39" drill="0.8" diameter="1.4224" rot="R90"/>
<pad name="GND@7" x="75.77" y="43.93" drill="0.8" diameter="1.4224" rot="R90"/>
<pad name="GPIO5" x="73.23" y="43.93" drill="0.8" diameter="1.4224" rot="R90"/>
<pad name="GPIO12" x="75.77" y="46.47" drill="0.8" diameter="1.4224" rot="R90"/>
<pad name="GPIO6" x="73.23" y="46.47" drill="0.8" diameter="1.4224" rot="R90"/>
<pad name="GPIO23" x="75.77" y="26.15" drill="0.8" diameter="1.4224" rot="R90"/>
<pad name="GPIO22/GEN3" x="73.23" y="26.15" drill="0.8" diameter="1.4224" rot="R90"/>
<pad name="GND@5" x="75.77" y="23.61" drill="0.8" diameter="1.4224" rot="R90"/>
<pad name="GPIO18" x="75.77" y="21.07" drill="0.8" diameter="1.4224" rot="R90"/>
<pad name="GPIO15/RXD0" x="75.77" y="18.53" drill="0.8" diameter="1.4224" rot="R90"/>
<pad name="GPIO14/TXD0" x="75.77" y="15.99" drill="0.8" diameter="1.4224" rot="R90"/>
<pad name="GND@4" x="75.77" y="13.45" drill="0.8" diameter="1.4224" rot="R90"/>
<pad name="5V@2" x="75.77" y="10.91" drill="0.8" diameter="1.4224" rot="R90"/>
<pad name="5V@1" x="75.77" y="8.37" drill="0.8" diameter="1.4224" rot="R90"/>
<pad name="3V3" x="73.23" y="8.37" drill="0.8" diameter="1.4224" shape="square" rot="R90"/>
<pad name="GPIO2/SDA1" x="73.23" y="10.91" drill="0.8" diameter="1.4224" rot="R90"/>
<pad name="GPIO3/SCL1" x="73.23" y="13.45" drill="0.8" diameter="1.4224" rot="R90"/>
<pad name="GPIO4/GCLK" x="73.23" y="15.99" drill="0.8" diameter="1.4224" rot="R90"/>
<pad name="GND@1" x="73.23" y="18.53" drill="0.8" diameter="1.4224" rot="R90"/>
<pad name="GPIO17/GEN0" x="73.23" y="21.07" drill="0.8" diameter="1.4224" rot="R90"/>
<pad name="GPIO27/GEN2" x="73.23" y="23.61" drill="0.8" diameter="1.4224" rot="R90"/>
<pad name="GND@8" x="75.77" y="49.01" drill="0.8" diameter="1.4224" rot="R90"/>
<pad name="GPIO16" x="75.77" y="51.55" drill="0.8" diameter="1.4224" rot="R90"/>
<pad name="GPIO20" x="75.77" y="54.09" drill="0.8" diameter="1.4224" rot="R90"/>
<pad name="GPIO21" x="75.77" y="56.63" drill="0.8" diameter="1.4224" rot="R90"/>
<pad name="GND@3" x="73.23" y="56.63" drill="0.8" diameter="1.4224" rot="R90"/>
<pad name="GPIO26" x="73.23" y="54.09" drill="0.8" diameter="1.4224" rot="R90"/>
<pad name="GPIO19" x="73.23" y="51.55" drill="0.8" diameter="1.4224" rot="R90"/>
<pad name="GPIO13" x="73.23" y="49.01" drill="0.8" diameter="1.4224" rot="R90"/>
<wire x1="77.04" y1="57.9" x2="77.04" y2="7.1" width="0.127" layer="22"/>
<wire x1="77.04" y1="7.1" x2="71.96" y2="7.1" width="0.127" layer="22"/>
<wire x1="71.96" y1="7.1" x2="71.96" y2="57.9" width="0.127" layer="22"/>
<wire x1="71.96" y1="57.9" x2="77.04" y2="57.9" width="0.127" layer="22"/>
<text x="70.83" y="7.31" size="1.27" layer="21">1</text>
<wire x1="22" y1="24" x2="20" y2="24" width="0.127" layer="22"/>
<wire x1="61" y1="6" x2="39" y2="6" width="0.127" layer="22"/>
<wire x1="39" y1="6" x2="39" y2="2" width="0.127" layer="22"/>
<wire x1="61" y1="2" x2="61" y2="6" width="0.127" layer="22"/>
<wire x1="20" y1="24" x2="20" y2="40" width="0.127" layer="22"/>
<wire x1="20" y1="40" x2="32" y2="40" width="0.127" layer="22"/>
<wire x1="32" y1="40" x2="32" y2="24" width="0.127" layer="22"/>
<wire x1="32" y1="24" x2="22" y2="24" width="0.127" layer="22"/>
<wire x1="46" y1="47" x2="22" y2="47" width="0.127" layer="22"/>
<wire x1="22" y1="47" x2="22" y2="43" width="0.127" layer="22"/>
<wire x1="22" y1="43" x2="46" y2="43" width="0.127" layer="22"/>
<wire x1="46" y1="43" x2="46" y2="47" width="0.127" layer="22"/>
<wire x1="34" y1="57" x2="34" y2="49" width="0.127" layer="22"/>
<wire x1="34" y1="49" x2="19" y2="49" width="0.127" layer="22"/>
<wire x1="19" y1="49" x2="19" y2="57" width="0.127" layer="22"/>
<wire x1="19" y1="57" x2="34" y2="57" width="0.127" layer="22"/>
<wire x1="40" y1="88" x2="40" y2="66" width="0.127" layer="22"/>
<wire x1="40" y1="66" x2="24" y2="66" width="0.127" layer="22"/>
<wire x1="24" y1="66" x2="24" y2="88" width="0.127" layer="22"/>
<wire x1="24" y1="88" x2="40" y2="88" width="0.127" layer="22"/>
<wire x1="58" y1="88" x2="44" y2="88" width="0.127" layer="22"/>
<wire x1="44" y1="88" x2="44" y2="70" width="0.127" layer="22"/>
<wire x1="44" y1="70" x2="58" y2="70" width="0.127" layer="22"/>
<wire x1="58" y1="70" x2="58" y2="88" width="0.127" layer="22"/>
<wire x1="62" y1="70" x2="62" y2="88" width="0.127" layer="22"/>
<wire x1="62" y1="88" x2="76" y2="88" width="0.127" layer="22"/>
<wire x1="76" y1="88" x2="76" y2="70" width="0.127" layer="22"/>
<wire x1="76" y1="70" x2="62" y2="70" width="0.127" layer="22"/>
<text x="63" y="75" size="1.27" layer="21">Height: 16.0 mm
Free: 0 mm</text>
<text x="45" y="75" size="1.27" layer="21">Height: 16.0 mm
Free: 0 mm</text>
<text x="26" y="75" size="1.27" layer="21">Height: 13.5 mm
Free: 2.5 mm</text>
<text x="23" y="51.5" size="1.27" layer="21">Height: 6 mm
Free: 10 mm</text>
<text x="29" y="43.5" size="1.27" layer="21">Height: 5.5 mm
Free: 10.5 mm</text>
<text x="29" y="26" size="1.27" layer="21" rot="R90">Height: 6.5 mm
Free: 9.5 mm</text>
<text x="46.6" y="5.5" size="1.27" layer="21" rot="R180">Height
5.5 mm</text>
<text x="54" y="2.5" size="1.27" layer="21">Free
10.5 mm</text>
<wire x1="75" y1="65" x2="51" y2="65" width="0.127" layer="22"/>
<text x="58" y="61.5" size="1.27" layer="21">Height: 5.5 mm
Free: 10.5 mm</text>
<wire x1="75" y1="65" x2="75" y2="63.7" width="0.127" layer="22"/>
<wire x1="53.7" y1="61" x2="72.3" y2="61" width="0.127" layer="22"/>
<wire x1="51" y1="65" x2="51" y2="63.7" width="0.127" layer="22"/>
<wire x1="61" y1="2" x2="53.2" y2="2" width="0.127" layer="22"/>
<wire x1="39" y1="2" x2="49.8" y2="2" width="0.127" layer="22"/>
<text x="53" y="29" size="1.27" layer="21">Height: 13.0 mm
Free: 3 mm</text>
<text x="29" y="13" size="1.27" layer="21">Height: 13.0 mm
Free: 3 mm</text>
</package>
<package name="RPI_ZERO&amp;3">
<description>Footprintf for: Rapsberry Pi 3, 3+, Zero, Zero W&lt;br&gt;
Layer: Bottom</description>
<wire x1="30" y1="3" x2="30" y2="62" width="0.127" layer="22"/>
<wire x1="0" y1="62" x2="0" y2="3" width="0.127" layer="22"/>
<wire x1="3" y1="0" x2="27" y2="0" width="0.127" layer="22"/>
<wire x1="0" y1="3" x2="3" y2="0" width="0.127" layer="22" curve="90"/>
<wire x1="27" y1="0" x2="30" y2="3" width="0.127" layer="22" curve="90"/>
<wire x1="0" y1="62" x2="3" y2="65" width="0.127" layer="22" curve="-90"/>
<wire x1="27" y1="65" x2="30" y2="62" width="0.127" layer="22" curve="-90"/>
<hole x="26.5" y="3.5" drill="3.2"/>
<hole x="26.5" y="61.5" drill="3.2"/>
<hole x="3.5" y="61.5" drill="3.2"/>
<hole x="3.5" y="3.5" drill="3.2"/>
<wire x1="56" y1="3" x2="56" y2="24" width="0.127" layer="22"/>
<wire x1="56" y1="24" x2="56" y2="43" width="0.127" layer="22"/>
<wire x1="56" y1="47" x2="56" y2="82" width="0.127" layer="22"/>
<wire x1="53" y1="85" x2="3" y2="85" width="0.127" layer="22"/>
<hole x="52.5" y="3.5" drill="3.2"/>
<hole x="52.5" y="61.5" drill="3.2"/>
<circle x="52.5" y="61.5" radius="2.12131875" width="0.127" layer="39"/>
<circle x="52.5" y="61.5" radius="2.12131875" width="0.127" layer="40"/>
<circle x="52.5" y="3.5" radius="2.12131875" width="0.127" layer="40"/>
<circle x="52.5" y="3.5" radius="2.12131875" width="0.127" layer="39"/>
<circle x="26.5" y="3.5" radius="2.12131875" width="0.127" layer="39"/>
<circle x="26.5" y="3.5" radius="2.12131875" width="0.127" layer="40"/>
<circle x="3.5" y="3.5" radius="2.12131875" width="0.127" layer="40"/>
<circle x="3.5" y="3.5" radius="2.12131875" width="0.127" layer="39"/>
<circle x="3.5" y="61.5" radius="2.12131875" width="0.127" layer="39"/>
<circle x="3.5" y="61.5" radius="2.12131875" width="0.127" layer="40"/>
<circle x="26.5" y="61.5" radius="2.12131875" width="0.127" layer="40"/>
<circle x="26.5" y="61.5" radius="2.12131875" width="0.127" layer="39"/>
<wire x1="53" y1="0" x2="56" y2="3" width="0.127" layer="22" curve="90"/>
<wire x1="56" y1="82" x2="53" y2="85" width="0.127" layer="22" curve="90"/>
<wire x1="3" y1="85" x2="0" y2="82" width="0.127" layer="22" curve="90"/>
<wire x1="0" y1="82" x2="0" y2="62" width="0.127" layer="22"/>
<wire x1="0" y1="3" x2="3" y2="0" width="0.127" layer="22" curve="90"/>
<wire x1="27" y1="0" x2="53" y2="0" width="0.127" layer="22"/>
<pad name="GND@6" x="2.23" y="31.23" drill="0.8" diameter="1.4224" rot="R90"/>
<pad name="GPIO10/MOSI" x="4.77" y="31.23" drill="0.8" diameter="1.4224" rot="R90"/>
<pad name="GPIO24" x="2.23" y="28.69" drill="0.8" diameter="1.4224" rot="R90"/>
<pad name="3V3@2" x="4.77" y="28.69" drill="0.8" diameter="1.4224" rot="R90"/>
<pad name="GPIO25" x="2.23" y="33.77" drill="0.8" diameter="1.4224" rot="R90"/>
<pad name="GPIO9/MISO" x="4.77" y="33.77" drill="0.8" diameter="1.4224" rot="R90"/>
<pad name="GPIO8" x="2.23" y="36.31" drill="0.8" diameter="1.4224" rot="R90"/>
<pad name="GPIO11/SCLK" x="4.77" y="36.31" drill="0.8" diameter="1.4224" rot="R90"/>
<pad name="GPIO7" x="2.23" y="38.85" drill="0.8" diameter="1.4224" rot="R90"/>
<pad name="GND@2" x="4.77" y="38.85" drill="0.8" diameter="1.4224" rot="R90"/>
<pad name="ID_SC" x="2.23" y="41.39" drill="0.8" diameter="1.4224" rot="R90"/>
<pad name="ID_SD" x="4.77" y="41.39" drill="0.8" diameter="1.4224" rot="R90"/>
<pad name="GND@7" x="2.23" y="43.93" drill="0.8" diameter="1.4224" rot="R90"/>
<pad name="GPIO5" x="4.77" y="43.93" drill="0.8" diameter="1.4224" rot="R90"/>
<pad name="GPIO12" x="2.23" y="46.47" drill="0.8" diameter="1.4224" rot="R90"/>
<pad name="GPIO6" x="4.77" y="46.47" drill="0.8" diameter="1.4224" rot="R90"/>
<pad name="GPIO23" x="2.23" y="26.15" drill="0.8" diameter="1.4224" rot="R90"/>
<pad name="GPIO22/GEN3" x="4.77" y="26.15" drill="0.8" diameter="1.4224" rot="R90"/>
<pad name="GND@5" x="2.23" y="23.61" drill="0.8" diameter="1.4224" rot="R90"/>
<pad name="GPIO18" x="2.23" y="21.07" drill="0.8" diameter="1.4224" rot="R90"/>
<pad name="GPIO15/RXD0" x="2.23" y="18.53" drill="0.8" diameter="1.4224" rot="R90"/>
<pad name="GPIO14/TXD0" x="2.23" y="15.99" drill="0.8" diameter="1.4224" rot="R90"/>
<pad name="GND@4" x="2.23" y="13.45" drill="0.8" diameter="1.4224" rot="R90"/>
<pad name="5V@2" x="2.23" y="10.91" drill="0.8" diameter="1.4224" rot="R90"/>
<pad name="5V@1" x="2.23" y="8.37" drill="0.8" diameter="1.4224" rot="R90"/>
<pad name="3V3" x="4.77" y="8.37" drill="0.8" diameter="1.4224" shape="square" rot="R90"/>
<pad name="GPIO2/SDA1" x="4.77" y="10.91" drill="0.8" diameter="1.4224" rot="R90"/>
<pad name="GPIO3/SCL1" x="4.77" y="13.45" drill="0.8" diameter="1.4224" rot="R90"/>
<pad name="GPIO4/GCLK" x="4.77" y="15.99" drill="0.8" diameter="1.4224" rot="R90"/>
<pad name="GND@1" x="4.77" y="18.53" drill="0.8" diameter="1.4224" rot="R90"/>
<pad name="GPIO17/GEN0" x="4.77" y="21.07" drill="0.8" diameter="1.4224" rot="R90"/>
<pad name="GPIO27/GEN2" x="4.77" y="23.61" drill="0.8" diameter="1.4224" rot="R90"/>
<pad name="GND@8" x="2.23" y="49.01" drill="0.8" diameter="1.4224" rot="R90"/>
<pad name="GPIO16" x="2.23" y="51.55" drill="0.8" diameter="1.4224" rot="R90"/>
<pad name="GPIO20" x="2.23" y="54.09" drill="0.8" diameter="1.4224" rot="R90"/>
<pad name="GPIO21" x="2.23" y="56.63" drill="0.8" diameter="1.4224" rot="R90"/>
<pad name="GND@3" x="4.77" y="56.63" drill="0.8" diameter="1.4224" rot="R90"/>
<pad name="GPIO26" x="4.77" y="54.09" drill="0.8" diameter="1.4224" rot="R90"/>
<pad name="GPIO19" x="4.77" y="51.55" drill="0.8" diameter="1.4224" rot="R90"/>
<pad name="GPIO13" x="4.77" y="49.01" drill="0.8" diameter="1.4224" rot="R90"/>
<wire x1="0.96" y1="57.9" x2="0.96" y2="7.1" width="0.127" layer="22"/>
<wire x1="0.96" y1="7.1" x2="6.04" y2="7.1" width="0.127" layer="22"/>
<wire x1="6.04" y1="7.1" x2="6.04" y2="57.9" width="0.127" layer="22"/>
<wire x1="6.04" y1="57.9" x2="0.96" y2="57.9" width="0.127" layer="22"/>
<text x="7.551" y="7.691" size="1.27" layer="21" rot="MR0">1</text>
<wire x1="56" y1="24" x2="58" y2="24" width="0.127" layer="22"/>
<wire x1="17" y1="6" x2="39" y2="6" width="0.127" layer="22"/>
<wire x1="39" y1="6" x2="39" y2="2" width="0.127" layer="22"/>
<wire x1="17" y1="2" x2="17" y2="6" width="0.127" layer="22"/>
<wire x1="58" y1="24" x2="58" y2="40" width="0.127" layer="22"/>
<wire x1="58" y1="40" x2="46" y2="40" width="0.127" layer="22"/>
<wire x1="46" y1="40" x2="46" y2="24" width="0.127" layer="22"/>
<wire x1="46" y1="24" x2="56" y2="24" width="0.127" layer="22"/>
<wire x1="32" y1="47" x2="56" y2="47" width="0.127" layer="22"/>
<wire x1="56" y1="47" x2="56" y2="43" width="0.127" layer="22"/>
<wire x1="56" y1="43" x2="32" y2="43" width="0.127" layer="22"/>
<wire x1="32" y1="43" x2="32" y2="47" width="0.127" layer="22"/>
<wire x1="44" y1="57" x2="44" y2="49" width="0.127" layer="22"/>
<wire x1="44" y1="49" x2="59" y2="49" width="0.127" layer="22"/>
<wire x1="59" y1="49" x2="59" y2="57" width="0.127" layer="22"/>
<wire x1="59" y1="57" x2="44" y2="57" width="0.127" layer="22"/>
<wire x1="38" y1="88" x2="38" y2="66" width="0.127" layer="22"/>
<wire x1="38" y1="66" x2="54" y2="66" width="0.127" layer="22"/>
<wire x1="54" y1="66" x2="54" y2="88" width="0.127" layer="22"/>
<wire x1="54" y1="88" x2="38" y2="88" width="0.127" layer="22"/>
<wire x1="20" y1="88" x2="34" y2="88" width="0.127" layer="22"/>
<wire x1="34" y1="88" x2="34" y2="70" width="0.127" layer="22"/>
<wire x1="34" y1="70" x2="20" y2="70" width="0.127" layer="22"/>
<wire x1="20" y1="70" x2="20" y2="88" width="0.127" layer="22"/>
<wire x1="16" y1="70" x2="16" y2="88" width="0.127" layer="22"/>
<wire x1="16" y1="88" x2="2" y2="88" width="0.127" layer="22"/>
<wire x1="2" y1="88" x2="2" y2="70" width="0.127" layer="22"/>
<wire x1="2" y1="70" x2="16" y2="70" width="0.127" layer="22"/>
<text x="15.7" y="75" size="1.27" layer="21" rot="MR0">Height: 16.0 mm
Free: 0 mm</text>
<text x="33.7" y="75" size="1.27" layer="21" rot="MR0">Height: 16.0 mm
Free: 0 mm</text>
<text x="52.7" y="75" size="1.27" layer="21" rot="MR0">Height: 13.5 mm
Free: 2.5 mm</text>
<text x="55.16" y="51.5" size="1.27" layer="21" rot="MR0">Height: 6 mm
Free: 10 mm</text>
<text x="50.43" y="43.5" size="1.27" layer="21" rot="MR0">Height: 5.5 mm
Free: 10.5 mm</text>
<text x="50.46" y="26" size="1.27" layer="21" rot="MR90">Height: 6.5 mm
Free: 9.5 mm</text>
<text x="32.29" y="5.5" size="1.27" layer="21" rot="MR180">Height
5.5 mm</text>
<text x="24.142" y="2.5" size="1.27" layer="21" rot="MR0">Free
10.5 mm</text>
<wire x1="3" y1="65" x2="27" y2="65" width="0.127" layer="22"/>
<text x="21.7" y="61.5" size="1.27" layer="21" rot="MR0">Height: 5.5 mm
Free: 10.5 mm</text>
<wire x1="3" y1="65" x2="3" y2="63.7" width="0.127" layer="22"/>
<wire x1="24.3" y1="61" x2="5.7" y2="61" width="0.127" layer="22"/>
<wire x1="27" y1="65" x2="27" y2="63.7" width="0.127" layer="22"/>
<wire x1="17" y1="2" x2="24.8" y2="2" width="0.127" layer="22"/>
<wire x1="39" y1="2" x2="28.2" y2="2" width="0.127" layer="22"/>
<text x="23.43" y="24" size="1.27" layer="21" rot="MR0">Height: 13.0 mm
Free: 3 mm</text>
<text x="49.43" y="13" size="1.27" layer="21" rot="MR0">Height: 13.0 mm
Free: 3 mm</text>
</package>
</packages>
<symbols>
<symbol name="RASPBERRY_PI">
<pin name="3V3@1" x="-27.94" y="22.86" visible="pin" length="middle"/>
<pin name="GPIO2/SDA1" x="-27.94" y="20.32" visible="pin" length="middle"/>
<pin name="GPIO3/SCL1" x="-27.94" y="17.78" visible="pin" length="middle"/>
<pin name="GPIO4/GCLK" x="-27.94" y="15.24" visible="pin" length="middle"/>
<pin name="GND@1" x="-27.94" y="12.7" visible="pin" length="middle"/>
<pin name="GPIO17/GEN0" x="-27.94" y="10.16" visible="pin" length="middle"/>
<pin name="GPIO27/GEN2" x="-27.94" y="7.62" visible="pin" length="middle"/>
<pin name="GPIO22/GEN3" x="-27.94" y="5.08" visible="pin" length="middle"/>
<pin name="3V3@2" x="-27.94" y="2.54" visible="pin" length="middle"/>
<pin name="GPIO10/MOSI" x="-27.94" y="0" length="middle"/>
<pin name="GPIO9/MISO" x="-27.94" y="-2.54" length="middle"/>
<pin name="GPIO11/SCLK" x="-27.94" y="-5.08" length="middle"/>
<pin name="GND@2" x="-27.94" y="-7.62" length="middle"/>
<pin name="ID_SD" x="-27.94" y="-10.16" visible="pin" length="middle"/>
<pin name="GPIO5" x="-27.94" y="-12.7" visible="pin" length="middle"/>
<pin name="GPIO6" x="-27.94" y="-15.24" visible="pin" length="middle"/>
<pin name="GPIO13" x="-27.94" y="-17.78" visible="pin" length="middle"/>
<pin name="GPIO19" x="-27.94" y="-20.32" visible="pin" length="middle"/>
<pin name="GPIO26" x="-27.94" y="-22.86" visible="pin" length="middle"/>
<pin name="GND@3" x="-27.94" y="-25.4" visible="pin" length="middle"/>
<pin name="5V@1" x="27.94" y="22.86" visible="pin" length="middle" rot="R180"/>
<pin name="5V@2" x="27.94" y="20.32" visible="pin" length="middle" rot="R180"/>
<pin name="GND@4" x="27.94" y="17.78" visible="pin" length="middle" rot="R180"/>
<pin name="GPIO14/TXD0" x="27.94" y="15.24" visible="pin" length="middle" rot="R180"/>
<pin name="GPIO15/RXD0" x="27.94" y="12.7" visible="pin" length="middle" rot="R180"/>
<pin name="GPIO18/GEN1" x="27.94" y="10.16" visible="pin" length="middle" rot="R180"/>
<pin name="GND@5" x="27.94" y="7.62" visible="pin" length="middle" rot="R180"/>
<pin name="GPIO23/GEN4" x="27.94" y="5.08" visible="pin" length="middle" rot="R180"/>
<pin name="GPIO24/GEN5" x="27.94" y="2.54" visible="pin" length="middle" rot="R180"/>
<pin name="GND@6" x="27.94" y="0" visible="pin" length="middle" rot="R180"/>
<pin name="GPIO25/GEN6" x="27.94" y="-2.54" visible="pin" length="middle" rot="R180"/>
<pin name="GPIO8/SPI_CE0_N" x="27.94" y="-5.08" visible="pin" length="middle" rot="R180"/>
<pin name="GPIO7/SPI_CE1_N" x="27.94" y="-7.62" visible="pin" length="middle" rot="R180"/>
<pin name="ID_SC" x="27.94" y="-10.16" visible="pin" length="middle" rot="R180"/>
<pin name="GND@7" x="27.94" y="-12.7" visible="pin" length="middle" rot="R180"/>
<pin name="GPIO12" x="27.94" y="-15.24" visible="pin" length="middle" rot="R180"/>
<pin name="GND@8" x="27.94" y="-17.78" visible="pin" length="middle" rot="R180"/>
<pin name="GPIO16" x="27.94" y="-20.32" visible="pin" length="middle" rot="R180"/>
<pin name="GPIO20" x="27.94" y="-22.86" visible="pin" length="middle" rot="R180"/>
<pin name="GPIO21" x="27.94" y="-25.4" visible="pin" length="middle" rot="R180"/>
<wire x1="-22.86" y1="25.4" x2="22.86" y2="25.4" width="0.254" layer="94"/>
<wire x1="22.86" y1="25.4" x2="22.86" y2="-27.94" width="0.254" layer="94"/>
<wire x1="22.86" y1="-27.94" x2="-22.86" y2="-27.94" width="0.254" layer="94"/>
<wire x1="-22.86" y1="-27.94" x2="-22.86" y2="25.4" width="0.254" layer="94"/>
<text x="-22.86" y="26.035" size="1.778" layer="95">&gt;NAME</text>
<text x="22.86" y="-30.48" size="1.778" layer="96" rot="MR0">&gt;VALUE</text>
</symbol>
</symbols>
<devicesets>
<deviceset name="RASPBERRY_PI" prefix="SBC">
<gates>
<gate name="G$1" symbol="RASPBERRY_PI" x="10.16" y="-5.08"/>
</gates>
<devices>
<device name="" package="RPI_ZERO&amp;3">
<connects>
<connect gate="G$1" pin="3V3@1" pad="3V3"/>
<connect gate="G$1" pin="3V3@2" pad="3V3@2"/>
<connect gate="G$1" pin="5V@1" pad="5V@1"/>
<connect gate="G$1" pin="5V@2" pad="5V@2"/>
<connect gate="G$1" pin="GND@1" pad="GND@1"/>
<connect gate="G$1" pin="GND@2" pad="GND@2"/>
<connect gate="G$1" pin="GND@3" pad="GND@3"/>
<connect gate="G$1" pin="GND@4" pad="GND@4"/>
<connect gate="G$1" pin="GND@5" pad="GND@5"/>
<connect gate="G$1" pin="GND@6" pad="GND@6"/>
<connect gate="G$1" pin="GND@7" pad="GND@7"/>
<connect gate="G$1" pin="GND@8" pad="GND@8"/>
<connect gate="G$1" pin="GPIO10/MOSI" pad="GPIO10/MOSI"/>
<connect gate="G$1" pin="GPIO11/SCLK" pad="GPIO11/SCLK"/>
<connect gate="G$1" pin="GPIO12" pad="GPIO12"/>
<connect gate="G$1" pin="GPIO13" pad="GPIO13"/>
<connect gate="G$1" pin="GPIO14/TXD0" pad="GPIO14/TXD0"/>
<connect gate="G$1" pin="GPIO15/RXD0" pad="GPIO15/RXD0"/>
<connect gate="G$1" pin="GPIO16" pad="GPIO16"/>
<connect gate="G$1" pin="GPIO17/GEN0" pad="GPIO17/GEN0"/>
<connect gate="G$1" pin="GPIO18/GEN1" pad="GPIO18"/>
<connect gate="G$1" pin="GPIO19" pad="GPIO19"/>
<connect gate="G$1" pin="GPIO2/SDA1" pad="GPIO2/SDA1"/>
<connect gate="G$1" pin="GPIO20" pad="GPIO20"/>
<connect gate="G$1" pin="GPIO21" pad="GPIO21"/>
<connect gate="G$1" pin="GPIO22/GEN3" pad="GPIO22/GEN3"/>
<connect gate="G$1" pin="GPIO23/GEN4" pad="GPIO23"/>
<connect gate="G$1" pin="GPIO24/GEN5" pad="GPIO24"/>
<connect gate="G$1" pin="GPIO25/GEN6" pad="GPIO25"/>
<connect gate="G$1" pin="GPIO26" pad="GPIO26"/>
<connect gate="G$1" pin="GPIO27/GEN2" pad="GPIO27/GEN2"/>
<connect gate="G$1" pin="GPIO3/SCL1" pad="GPIO3/SCL1"/>
<connect gate="G$1" pin="GPIO4/GCLK" pad="GPIO4/GCLK"/>
<connect gate="G$1" pin="GPIO5" pad="GPIO5"/>
<connect gate="G$1" pin="GPIO6" pad="GPIO6"/>
<connect gate="G$1" pin="GPIO7/SPI_CE1_N" pad="GPIO7"/>
<connect gate="G$1" pin="GPIO8/SPI_CE0_N" pad="GPIO8"/>
<connect gate="G$1" pin="GPIO9/MISO" pad="GPIO9/MISO"/>
<connect gate="G$1" pin="ID_SC" pad="ID_SC"/>
<connect gate="G$1" pin="ID_SD" pad="ID_SD"/>
</connects>
<technologies>
<technology name=""/>
</technologies>
</device>
<device name="RPI_ZERO&amp;3_REVERSED" package="RPI_ZERO&amp;3_REVERSED">
<connects>
<connect gate="G$1" pin="3V3@1" pad="3V3"/>
<connect gate="G$1" pin="3V3@2" pad="3V3@2"/>
<connect gate="G$1" pin="5V@1" pad="5V@1"/>
<connect gate="G$1" pin="5V@2" pad="5V@2"/>
<connect gate="G$1" pin="GND@1" pad="GND@1"/>
<connect gate="G$1" pin="GND@2" pad="GND@2"/>
<connect gate="G$1" pin="GND@3" pad="GND@3"/>
<connect gate="G$1" pin="GND@4" pad="GND@4"/>
<connect gate="G$1" pin="GND@5" pad="GND@5"/>
<connect gate="G$1" pin="GND@6" pad="GND@6"/>
<connect gate="G$1" pin="GND@7" pad="GND@7"/>
<connect gate="G$1" pin="GND@8" pad="GND@8"/>
<connect gate="G$1" pin="GPIO10/MOSI" pad="GPIO10/MOSI"/>
<connect gate="G$1" pin="GPIO11/SCLK" pad="GPIO11/SCLK"/>
<connect gate="G$1" pin="GPIO12" pad="GPIO12"/>
<connect gate="G$1" pin="GPIO13" pad="GPIO13"/>
<connect gate="G$1" pin="GPIO14/TXD0" pad="GPIO14/TXD0"/>
<connect gate="G$1" pin="GPIO15/RXD0" pad="GPIO15/RXD0"/>
<connect gate="G$1" pin="GPIO16" pad="GPIO16"/>
<connect gate="G$1" pin="GPIO17/GEN0" pad="GPIO17/GEN0"/>
<connect gate="G$1" pin="GPIO18/GEN1" pad="GPIO18"/>
<connect gate="G$1" pin="GPIO19" pad="GPIO19"/>
<connect gate="G$1" pin="GPIO2/SDA1" pad="GPIO2/SDA1"/>
<connect gate="G$1" pin="GPIO20" pad="GPIO20"/>
<connect gate="G$1" pin="GPIO21" pad="GPIO21"/>
<connect gate="G$1" pin="GPIO22/GEN3" pad="GPIO22/GEN3"/>
<connect gate="G$1" pin="GPIO23/GEN4" pad="GPIO23"/>
<connect gate="G$1" pin="GPIO24/GEN5" pad="GPIO24"/>
<connect gate="G$1" pin="GPIO25/GEN6" pad="GPIO25"/>
<connect gate="G$1" pin="GPIO26" pad="GPIO26"/>
<connect gate="G$1" pin="GPIO27/GEN2" pad="GPIO27/GEN2"/>
<connect gate="G$1" pin="GPIO3/SCL1" pad="GPIO3/SCL1"/>
<connect gate="G$1" pin="GPIO4/GCLK" pad="GPIO4/GCLK"/>
<connect gate="G$1" pin="GPIO5" pad="GPIO5"/>
<connect gate="G$1" pin="GPIO6" pad="GPIO6"/>
<connect gate="G$1" pin="GPIO7/SPI_CE1_N" pad="GPIO7"/>
<connect gate="G$1" pin="GPIO8/SPI_CE0_N" pad="GPIO8"/>
<connect gate="G$1" pin="GPIO9/MISO" pad="GPIO9/MISO"/>
<connect gate="G$1" pin="ID_SC" pad="ID_SC"/>
<connect gate="G$1" pin="ID_SD" pad="ID_SD"/>
</connects>
<technologies>
<technology name=""/>
</technologies>
</device>
</devices>
</deviceset>
</devicesets>
</library>
</drawing>
<compatibility>
<note version="6.3" minversion="6.2.2" severity="warning">
Since Version 6.2.2 text objects can contain more than one line,
which will not be processed correctly with this version.
</note>
</compatibility>
</eagle>
